<?xml version="1.0" encoding="UTF-8" standalone="no"?>
<!DOCTYPE svg PUBLIC "-//W3C//DTD SVG 1.1//EN" "http://www.w3.org/Graphics/SVG/1.1/DTD/svg11.dtd">
<!-- Generated by Microsoft Visio, SVG Export 02-restricted-transfer-pricing-flowchart.svg Page-1 -->
<svg xmlns="http://www.w3.org/2000/svg" xmlns:xlink="http://www.w3.org/1999/xlink" xmlns:ev="http://www.w3.org/2001/xml-events"
		width="6.64671in" height="10.0857in" viewBox="0 0 478.563 726.169" xml:space="preserve" color-interpolation-filters="sRGB"
		class="st10">
	<style type="text/css">
	<![CDATA[
		.st1 {fill:none;stroke:#000000;stroke-width:0.25}
		.st2 {fill:#000000;font-family:Verdana;font-size:0.833336em}
		.st3 {font-size:1em}
		.st4 {fill:#000000;font-family:Verdana;font-size:0.833336em;font-weight:bold}
		.st5 {marker-end:url(#mrkr4-61);stroke:#5b9bd5;stroke-linecap:round;stroke-linejoin:round;stroke-width:1}
		.st6 {fill:#5b9bd5;fill-opacity:1;stroke:#5b9bd5;stroke-opacity:1;stroke-width:0.28409090909091}
		.st7 {fill:#ffffff;stroke:none;stroke-linecap:butt;stroke-width:7.2}
		.st8 {fill:#000000;font-family:Verdana;font-size:0.666664em}
		.st9 {fill:none;stroke:none;stroke-width:0.25}
		.st10 {fill:none;fill-rule:evenodd;font-size:12px;overflow:visible;stroke-linecap:square;stroke-miterlimit:3}
	]]>
	</style>

	<defs id="Markers">
		<g id="lend4">
			<path d="M 2 1 L 0 0 L 2 -1 L 2 1 " style="stroke:none"/>
		</g>
		<marker id="mrkr4-61" class="st6" refX="-7.04" orient="auto" markerUnits="strokeWidth" overflow="visible">
			<use xlink:href="#lend4" transform="scale(-3.52,-3.52) "/>
		</marker>
	</defs>
	<g>
		<title>Page-1</title>
		<g id="shape1-1" transform="translate(0.25,-669.226)">
			<title>Sheet.1</title>
			<desc>Are you controlled by a non-resident or more than one non-res...</desc>
			<rect x="0" y="669.476" width="141.732" height="56.6929" class="st1"/>
			<text x="12.29" y="682.82" class="st2">Are you controlled by a <tspan x="4.16" dy="1.2em" class="st3">non</tspan>-resident or more than <tspan
						x="4.7" dy="1.2em" class="st3">one non</tspan>-resident acting in <tspan x="49.65" dy="1.2em" class="st3">concert</tspan>? </text>		</g>
		<g id="shape6-7" transform="translate(364.927,-669.226)">
			<title>Sheet.6</title>
			<desc>Transfer pricing rules do not apply</desc>
			<rect x="0" y="669.476" width="113.386" height="56.6929" class="st1"/>
			<text x="17.2" y="694.82" class="st2">Transfer pricing <tspan x="11.28" dy="1.2em" class="st3">rules do not apply</tspan></text>		</g>
		<g id="shape7-11" transform="translate(0.25,-499.148)">
			<title>Sheet.7</title>
			<desc>Are you a high BEPS risk?</desc>
			<rect x="0" y="669.476" width="141.732" height="56.6929" class="st1"/>
			<text x="5.75" y="700.82" class="st2">Are you a high BEPS risk?</text>		</g>
		<g id="shape8-14" transform="translate(0.25,-584.187)">
			<title>Sheet.8</title>
			<desc>Do you have related-party cross-border borrowing more than $1...</desc>
			<rect x="0" y="669.476" width="141.732" height="56.6929" class="st1"/>
			<text x="4.44" y="688.82" class="st2">Do you have related-party <tspan x="12.15" dy="1.2em" class="st3">cross</tspan>-border borrowing <tspan
						x="15.19" dy="1.2em" class="st3">more than </tspan>$10 million</text>		</g>
		<g id="shape10-19" transform="translate(364.927,-584.187)">
			<title>Sheet.10</title>
			<desc>Simplified transfer pricing rules apply</desc>
			<rect x="0" y="669.476" width="113.386" height="56.6929" class="st1"/>
			<text x="10.45" y="694.82" class="st2">Simplified transfer <tspan x="10.48" dy="1.2em" class="st3">pricing rules apply</tspan></text>		</g>
		<g id="shape12-23" transform="translate(0.25,-399.935)">
			<title>Sheet.12</title>
			<desc>Restricted transfer pricing rules apply* – Determine the cred...</desc>
			<rect x="0" y="655.303" width="141.732" height="70.8661" class="st1"/>
			<text x="5.52" y="669.74" class="st2">Restricted transfer pricing <tspan x="7.13" dy="1.2em" class="st3">rules apply</tspan>* – Determine <tspan
						x="10.36" dy="1.2em" class="st3">the credit rating implied </tspan><tspan x="14.19" dy="1.2em" class="st3">by the interest rate on </tspan><tspan
						x="12.39" dy="1.2em" class="st3">your related party debt</tspan></text>		</g>
		<g id="shape13-30" transform="translate(364.927,-499.148)">
			<title>Sheet.13</title>
			<desc>Standard transfer pricing rules apply*</desc>
			<rect x="0" y="669.476" width="113.386" height="56.6929" class="st1"/>
			<text x="12.27" y="694.82" class="st2">Standard transfer <tspan x="7.3" dy="1.2em" class="st3">pricing rules apply</tspan>*</text>		</g>
		<g id="shape15-34" transform="translate(0.25,-300.722)">
			<title>Sheet.15</title>
			<desc>Is the credit rating the same as the credit rating implied by...</desc>
			<rect x="0" y="655.303" width="141.732" height="70.8661" class="st1"/>
			<text x="13.97" y="675.74" class="st2">Is the credit rating the <tspan x="7.73" dy="1.2em" class="st3">same as the credit rating </tspan><tspan
						x="4.07" dy="1.2em" class="st3">implied by significant third </tspan><tspan x="42.02" dy="1.2em"
						class="st3">party debt</tspan>?</text>		</g>
		<g id="shape17-40" transform="translate(364.927,-300.722)">
			<title>Sheet.17</title>
			<desc>No credit rating adjustment required</desc>
			<rect x="0" y="669.476" width="113.386" height="56.6929" class="st1"/>
			<text x="17.47" y="694.82" class="st2">No credit rating <tspan x="5.39" dy="1.2em" class="st3">adjustment required</tspan></text>		</g>
		<g id="shape19-44" transform="translate(180.675,-188.754)">
			<title>Sheet.19</title>
			<desc>Is the credit rating (a) the same as if you had 40% or less d...</desc>
			<rect x="0" y="655.303" width="141.732" height="70.8661" class="st1"/>
			<text x="23.84" y="669.74" class="st2">Is the credit rating  <tspan x="4.03" dy="1.2em" class="st3">(</tspan>a) the same as if you had <tspan
						x="11.31" dy="1.2em" class="st3">40</tspan>% or less debt to net <tspan x="41.79" dy="1.2em" class="st3">assets</tspan>; and  <tspan
						x="24.29" dy="1.2em" class="st3">(</tspan>b) BBB- or higher</text>		</g>
		<g id="shape20-51" transform="translate(364.927,-195.841)">
			<title>Sheet.20</title>
			<desc>Credit rating adjustment required</desc>
			<rect x="0" y="669.476" width="113.386" height="56.6929" class="st1"/>
			<text x="21.21" y="688.82" class="st4">Credit rating <tspan x="24.59" dy="1.2em" class="st3">adjustment </tspan><tspan
						x="32.82" dy="1.2em" class="st3">required</tspan></text>		</g>
		<g id="shape21-56" transform="translate(64.0295,-669.226)">
			<title>Dynamic connector</title>
			<desc>Yes</desc>
			<path d="M7.09 726.17 L7.09 747.48" class="st5"/>
			<rect x="0.158971" y="735.543" width="13.8554" height="9.59985" class="st7"/>
			<text x="0.16" y="742.74" class="st8">Yes</text>		</g>
		<g id="shape22-64" transform="translate(141.982,-690.486)">
			<title>Dynamic connector.22</title>
			<desc>No</desc>
			<path d="M0 719.08 L215.9 719.08" class="st5"/>
			<rect x="106.053" y="714.283" width="10.8397" height="9.59985" class="st7"/>
			<text x="106.05" y="721.48" class="st8">No</text>		</g>
		<g id="shape30-71" transform="translate(141.982,-605.447)">
			<title>Dynamic connector.30</title>
			<desc>No</desc>
			<path d="M0 719.08 L215.9 719.08" class="st5"/>
			<rect x="106.053" y="714.283" width="10.8397" height="9.59985" class="st7"/>
			<text x="106.05" y="721.48" class="st8">No</text>		</g>
		<g id="shape31-78" transform="translate(64.0295,-584.187)">
			<title>Dynamic connector.31</title>
			<desc>Yes</desc>
			<path d="M7.09 726.17 L7.09 747.48" class="st5"/>
			<rect x="0.158971" y="735.543" width="13.8554" height="9.59985" class="st7"/>
			<text x="0.16" y="742.74" class="st8">Yes</text>		</g>
		<g id="shape32-85" transform="translate(141.982,-520.407)">
			<title>Dynamic connector.32</title>
			<desc>No</desc>
			<path d="M0 719.08 L215.9 719.08" class="st5"/>
			<rect x="106.053" y="714.283" width="10.8397" height="9.59985" class="st7"/>
			<text x="106.05" y="721.48" class="st8">No</text>		</g>
		<g id="shape34-92" transform="translate(64.0295,-499.148)">
			<title>Dynamic connector.34</title>
			<desc>Yes</desc>
			<path d="M7.09 726.17 L7.09 747.48" class="st5"/>
			<rect x="0.158971" y="735.543" width="13.8554" height="9.59985" class="st7"/>
			<text x="0.16" y="742.74" class="st8">Yes</text>		</g>
		<g id="shape35-99" transform="translate(64.0295,-399.935)">
			<title>Dynamic connector.35</title>
			<path d="M7.09 726.17 L7.09 747.48" class="st5"/>
		</g>
		<g id="shape36-104" transform="translate(141.982,-323.754)">
			<title>Dynamic connector.36</title>
			<desc>Yes</desc>
			<path d="M0 719.08 L215.9 719.08" class="st5"/>
			<rect x="104.545" y="714.283" width="13.8554" height="9.59985" class="st7"/>
			<text x="104.54" y="721.48" class="st8">Yes</text>		</g>
		<g id="shape38-111" transform="translate(60.2028,-300.722)">
			<title>Dynamic connector.38</title>
			<desc>No significant third party debt or rating different</desc>
			<path d="M7.09 726.17 L7.09 767.32" class="st5"/>
			<rect x="-42.9011" y="736.412" width="99.9753" height="19.1997" class="st7"/>
			<text x="-42.9" y="743.61" class="st8">No significant third party  <tspan x="-39" dy="1.2em" class="st3">debt or rating different</tspan></text>		</g>
		<g id="shape40-119" transform="translate(141.982,-149.069)">
			<title>Dynamic connector.40</title>
			<desc>No</desc>
			<path d="M0 726.17 L279.64 726.17 L279.64 686.44" class="st5"/>
			<rect x="157.785" y="721.37" width="10.8397" height="9.59985" class="st7"/>
			<text x="157.78" y="728.57" class="st8">No</text>		</g>
		<g id="shape43-126" transform="translate(0.25,-195.841)">
			<title>Sheet.43</title>
			<desc>Are you controlled by one person or a group acting in concert</desc>
			<rect x="0" y="669.476" width="141.732" height="56.6929" class="st1"/>
			<text x="6.11" y="688.82" class="st2">Are you controlled by one <tspan x="8.84" dy="1.2em" class="st3">person or a group acting </tspan><tspan
						x="46.08" dy="1.2em" class="st3">in concert</tspan></text>		</g>
		<g id="shape44-131" transform="translate(364.927,-71.8248)">
			<title>Sheet.44</title>
			<desc>No credit rating adjustment required</desc>
			<rect x="0" y="669.476" width="113.386" height="56.6929" class="st1"/>
			<text x="17.47" y="694.82" class="st2">No credit rating <tspan x="5.39" dy="1.2em" class="st3">adjustment required</tspan></text>		</g>
		<g id="shape45-135" transform="translate(141.982,-217.1)">
			<title>Dynamic connector.45</title>
			<desc>Group</desc>
			<path d="M0 719.08 L31.65 719.08" class="st5"/>
			<rect x="7.08687" y="714.283" width="24.5193" height="9.59985" class="st7"/>
			<text x="7.09" y="721.48" class="st8">Group</text>		</g>
		<g id="shape47-142" transform="translate(322.407,-259.62)">
			<title>Dynamic connector.47</title>
			<desc>Yes</desc>
			<path d="M0 726.17 L0 685.07 L35.48 685.07" class="st5"/>
			<rect x="-6.21898" y="680.267" width="13.8554" height="9.59985" class="st7"/>
			<text x="-6.22" y="687.47" class="st8">Yes</text>		</g>
		<g id="shape48-149" transform="translate(322.407,-217.1)">
			<title>Dynamic connector.48</title>
			<desc>No</desc>
			<path d="M0 719.08 L35.48 719.08" class="st5"/>
			<rect x="15.8401" y="714.283" width="10.8397" height="9.59985" class="st7"/>
			<text x="15.84" y="721.48" class="st8">No</text>		</g>
		<g id="shape49-156" transform="translate(141.982,-93.0846)">
			<title>Dynamic connector.49</title>
			<desc>Yes</desc>
			<path d="M0 719.08 L215.9 719.08" class="st5"/>
			<rect x="104.545" y="714.283" width="13.8554" height="9.59985" class="st7"/>
			<text x="104.54" y="721.48" class="st8">Yes</text>		</g>
		<g id="shape50-163" transform="translate(74.376,-195.841)">
			<title>Dynamic connector.50</title>
			<desc>One person</desc>
			<path d="M-7.09 726.17 L-7.09 761.65" class="st5"/>
			<rect x="-30.1802" y="742.629" width="46.1871" height="9.59985" class="st7"/>
			<text x="-30.18" y="749.83" class="st8">One person</text>		</g>
		<g id="shape18-170" transform="translate(0.25,-47.0217)">
			<title>Sheet.18</title>
			<desc>Is the credit rating within (a) two notches of your group’s c...</desc>
			<rect x="0" y="619.87" width="141.732" height="106.299" class="st1"/>
			<text x="6.94" y="640.02" class="st2">Is the credit rating within <tspan x="11.59" dy="1.2em" class="st3">(</tspan>a) two notches of your <tspan
						x="8.87" dy="1.2em" class="st3">group’s credit rating and </tspan><tspan x="24.5" dy="1.2em" class="st3">BBB</tspan>- or higher; or <tspan
						x="16.98" dy="1.2em" class="st3">(</tspan>b) one notch of your <tspan x="8.87" dy="1.2em" class="st3">group’s credit rating and </tspan><tspan
						x="37.62" dy="1.2em" class="st3">BB</tspan>+ or lower</text>		</g>
		<g id="shape52-179" transform="translate(53.1161,-0.25)">
			<title>Sheet.52</title>
			<desc>*Also disregard exotic terms – not covered by this flow chart</desc>
			<rect x="0" y="663.807" width="403.937" height="62.3622" class="st9"/>
			<text x="4" y="697.99" class="st2">*Also disregard exotic terms – not covered by this flow chart</text>		</g>
	</g>
</svg>
