<?xml version="1.0" encoding="UTF-8" standalone="no"?>
<!DOCTYPE svg PUBLIC "-//W3C//DTD SVG 1.1//EN" "http://www.w3.org/Graphics/SVG/1.1/DTD/svg11.dtd">
<!-- Generated by Microsoft Visio, SVG Export 2017-sr-nrwt-diagram-3-p29.svg Page-1 -->
<svg xmlns="http://www.w3.org/2000/svg" xmlns:xlink="http://www.w3.org/1999/xlink" xmlns:ev="http://www.w3.org/2001/xml-events"
		width="4.46355in" height="2.09139in" viewBox="0 0 321.376 150.58" xml:space="preserve" color-interpolation-filters="sRGB"
		class="st10">
	<style type="text/css">
	<![CDATA[
		.st1 {fill:#ffffff;stroke:#000000;stroke-linecap:round;stroke-linejoin:round;stroke-width:0.24}
		.st2 {fill:#000000;font-family:Verdana;font-size:0.833336em}
		.st3 {font-size:1em}
		.st4 {stroke:#000000;stroke-dasharray:3.6,2.16;stroke-linecap:round;stroke-linejoin:round;stroke-width:0.24}
		.st5 {marker-end:url(#mrkr4-14);stroke:#000000;stroke-linecap:round;stroke-linejoin:round;stroke-width:0.24}
		.st6 {fill:#000000;fill-opacity:1;stroke:#000000;stroke-opacity:1;stroke-width:0.08695652173913}
		.st7 {fill:none;marker-end:url(#mrkr13-29);stroke:none;stroke-linecap:round;stroke-linejoin:round;stroke-width:0.24}
		.st8 {fill:none;stroke:none;stroke-linecap:round;stroke-linejoin:round;stroke-width:0.24}
		.st9 {fill:#000000;font-family:Verdana;font-size:0.666664em}
		.st10 {fill:none;fill-rule:evenodd;font-size:12px;overflow:visible;stroke-linecap:square;stroke-miterlimit:3}
	]]>
	</style>

	<defs id="Markers">
		<g id="lend4">
			<path d="M 2 1 L 0 0 L 2 -1 L 2 1 " style="stroke:none"/>
		</g>
		<marker id="mrkr4-14" class="st6" refX="-23" orient="auto" markerUnits="strokeWidth" overflow="visible">
			<use xlink:href="#lend4" transform="scale(-11.5,-11.5) "/>
		</marker>
		<g id="lend13">
			<path d="M 3 1 L 0 0 L 3 -1 L 3 1 " style="stroke:none"/>
		</g>
		<marker id="mrkr13-29" class="st6" refX="-34.5" orient="auto" markerUnits="strokeWidth" overflow="visible">
			<use xlink:href="#lend13" transform="scale(-11.5,-11.5) "/>
		</marker>
	</defs>
	<g>
		<title>Page-1</title>
		<g id="group17-1" transform="translate(8.72789,-0.12)">
			<title>Sheet.17</title>
			<g id="shape18-2" transform="translate(115.52,-106.299)">
				<title>Sheet.18</title>
				<desc>Foreign Bank NZ Branch</desc>
				<rect x="0" y="108.06" width="99.2126" height="42.5197" class="st1"/>
				<text x="21.9" y="126.32" class="st2">Foreign Bank <tspan x="23.19" dy="1.2em" class="st3">NZ Branch</tspan></text>			</g>
			<g id="shape19-6" transform="translate(0,-127.559)">
				<title>Sheet.19</title>
				<path d="M0 150.58 L312.53 150.58" class="st4"/>
			</g>
			<g id="shape20-9" transform="translate(281.347,-28.3465)">
				<title>Dynamic connector.4</title>
				<path d="M0 150.58 L-63.85 40.27" class="st5"/>
			</g>
			<g id="shape21-15" transform="translate(40.4017,0)">
				<title>Sheet.21</title>
				<desc>NZ Bank Sub</desc>
				<rect x="0" y="122.234" width="76.5354" height="28.3465" class="st1"/>
				<text x="5.34" y="139.41" class="st2">NZ Bank Sub</text>			</g>
			<g id="shape22-18" transform="translate(197.725,0)">
				<title>Sheet.22</title>
				<desc>NZ Borrower</desc>
				<rect x="0" y="122.234" width="83.622" height="28.3465" class="st1"/>
				<text x="9.92" y="139.41" class="st2">NZ Borrower</text>			</g>
			<g id="shape23-21" transform="translate(71.5828,-28.3465)">
				<title>Dynamic connector.16</title>
				<path d="M0 150.58 L41.93 43.47" class="st5"/>
			</g>
			<g id="shape24-26" transform="translate(0,-127.559)">
				<title>Sheet.24</title>
				<desc>Offshore</desc>
				<rect x="0" y="136.407" width="49.6063" height="14.1732" class="st7"/>
				<text x="4.87" y="146.49" class="st2">Offshore</text>			</g>
			<g id="shape25-31" transform="translate(3.54331,-113.386)">
				<title>Sheet.25</title>
				<desc>NZ</desc>
				<rect x="0" y="136.407" width="21.2598" height="14.1732" class="st7"/>
				<text x="2" y="146.49" class="st2">NZ</text>			</g>
			<g id="shape26-35" transform="translate(97.0946,-28.3465)">
				<title>Dynamic connector.12</title>
				<path d="M0 150.58 L61.66 76.86" class="st5"/>
			</g>
			<g id="shape27-40" transform="translate(6.38598,-42.5197)">
				<title>Sheet.27</title>
				<desc>Interest (NRWT – onshore branch exemption does not apply)</desc>
				<rect x="0" y="108.06" width="82.2047" height="42.5197" class="st8"/>
				<text x="5.81" y="117.32" class="st9">Interest (NRWT – <tspan x="9.86" dy="1.2em" class="st3">onshore branch </tspan><tspan
							x="9.16" dy="1.2em" class="st3">exemption does </tspan><tspan x="20.49" dy="1.2em" class="st3">not apply</tspan>)</text>			</g>
			<g id="shape28-46" transform="translate(105.599,-39.685)">
				<title>Sheet.28</title>
				<desc>Interest (no NRWT – onshore branch exemption)</desc>
				<rect x="0" y="108.06" width="175.748" height="42.5197" class="st8"/>
				<text x="13.57" y="126.92" class="st9">Interest (no NRWT – onshore branch <tspan x="64.91" dy="1.2em" class="st3">exemption</tspan>)</text>			</g>
			<g id="shape29-50" transform="translate(233.158,-28.3465)">
				<title>Dynamic connector.1</title>
				<path d="M0 150.58 L-53.45 77.09" class="st5"/>
			</g>
		</g>
	</g>
</svg>
