<?xml version="1.0" encoding="UTF-8" standalone="no"?>
<!DOCTYPE svg PUBLIC "-//W3C//DTD SVG 1.1//EN" "http://www.w3.org/Graphics/SVG/1.1/DTD/svg11.dtd">
<!-- Generated by Microsoft Visio, SVG Export 2017-sr-nrwt-flowchart-figure-1-p10.svg Page-1 -->
<svg xmlns="http://www.w3.org/2000/svg" xmlns:xlink="http://www.w3.org/1999/xlink" xmlns:ev="http://www.w3.org/2001/xml-events"
		width="7.6805in" height="11.1254in" viewBox="0 0 552.996 801.027" xml:space="preserve" color-interpolation-filters="sRGB"
		class="st10">
	<style type="text/css">
	<![CDATA[
		.st1 {fill:#ffffff;stroke:#000000;stroke-linecap:round;stroke-linejoin:round;stroke-width:0.24}
		.st2 {fill:#000000;font-family:Verdana;font-size:0.833336em}
		.st3 {font-size:1em}
		.st4 {marker-end:url(#mrkr4-16);stroke:#000000;stroke-linecap:round;stroke-linejoin:round;stroke-width:0.239976}
		.st5 {fill:#000000;fill-opacity:1;stroke:#000000;stroke-opacity:1;stroke-width:0.086948582161584}
		.st6 {fill:#ffffff;stroke:none;stroke-linecap:butt;stroke-width:7.2}
		.st7 {marker-end:url(#mrkr4-187);stroke:#000000;stroke-linecap:round;stroke-linejoin:round;stroke-width:0.75}
		.st8 {fill:#000000;fill-opacity:1;stroke:#000000;stroke-opacity:1;stroke-width:0.22935779816514}
		.st9 {stroke:#000000;stroke-linecap:round;stroke-linejoin:round;stroke-width:0.24}
		.st10 {fill:none;fill-rule:evenodd;font-size:12px;overflow:visible;stroke-linecap:square;stroke-miterlimit:3}
	]]>
	</style>

	<defs id="Markers">
		<g id="lend4">
			<path d="M 2 1 L 0 0 L 2 -1 L 2 1 " style="stroke:none"/>
		</g>
		<marker id="mrkr4-16" class="st5" refX="-23.002100210021" orient="auto" markerUnits="strokeWidth" overflow="visible">
			<use xlink:href="#lend4" transform="scale(-11.501050105011,-11.501050105011) "/>
		</marker>
		<marker id="mrkr4-187" class="st8" refX="-8.72" orient="auto" markerUnits="strokeWidth" overflow="visible">
			<use xlink:href="#lend4" transform="scale(-4.36,-4.36) "/>
		</marker>
	</defs>
	<g>
		<title>Page-1</title>
		<g id="group67-1" transform="translate(0.12,-0.12)">
			<title>Sheet.67</title>
			<g id="shape1-2" transform="translate(141.732,-751.181)">
				<title>Process</title>
				<desc>Do you have a financial arrangement with a non-resident relat...</desc>
				<rect x="0" y="751.421" width="141.732" height="49.6063" class="st1"/>
				<text x="11.87" y="767.22" class="st2">Do you have a financial <tspan x="7.85" dy="1.2em" class="st3">arrangement with a non</tspan>-<tspan
							x="13.57" dy="1.2em" class="st3">resident related party</tspan>?</text>			</g>
			<g id="shape2-7" transform="translate(141.732,-619.37)">
				<title>Process.2</title>
				<desc>Does it provide you with funding?</desc>
				<rect x="0" y="768.429" width="141.732" height="32.5984" class="st1"/>
				<text x="9.56" y="781.73" class="st2">Does it provide you with <tspan x="49.29" dy="1.2em" class="st3">funding</tspan>?</text>			</g>
			<g id="shape3-11" transform="translate(205.512,-751.181)">
				<title>Dynamic connector</title>
				<desc>Yes</desc>
				<path d="M7.09 801.03 L7.09 894.72" class="st4"/>
				<rect x="-0.313303" y="861.704" width="17.3194" height="12.0001" class="st6"/>
				<text x="-0.31" y="870.7" class="st2">Yes</text>			</g>
			<g id="shape4-19" transform="translate(141.732,-562.677)">
				<title>Process.4</title>
				<desc>Are you entitled to a deduction?</desc>
				<rect x="0" y="768.429" width="141.732" height="32.5984" class="st1"/>
				<text x="19.22" y="781.73" class="st2">Are you entitled to a <tspan x="43.62" dy="1.2em" class="st3">deduction</tspan>?</text>			</g>
			<g id="shape5-23" transform="translate(205.512,-619.37)">
				<title>Dynamic connector.5</title>
				<desc>Yes</desc>
				<path d="M7.09 801.03 L7.09 819.6" class="st4"/>
				<rect x="-1.57315" y="807.075" width="17.3194" height="12.0001" class="st6"/>
				<text x="-1.57" y="816.07" class="st2">Yes</text>			</g>
			<g id="shape6-30" transform="translate(439.37,0)">
				<title>Process.6</title>
				<desc>Current NRWT rules apply</desc>
				<rect x="0" y="757.09" width="113.386" height="43.937" class="st1"/>
				<text x="20.66" y="776.06" class="st2">Current NRWT  <tspan x="29.12" dy="1.2em" class="st3">rules apply</tspan></text>			</g>
			<g id="shape7-34" transform="translate(212.598,-751.181)">
				<title>Dynamic connector.7</title>
				<desc>No</desc>
				<path d="M0 801.03 L0 833.63 L79.52 833.63" class="st4"/>
				<rect x="19.4454" y="827.626" width="13.55" height="12.0001" class="st6"/>
				<text x="19.45" y="836.63" class="st2">No</text>			</g>
			<g id="shape8-41" transform="translate(283.465,-635.669)">
				<title>Dynamic connector.8</title>
				<desc>No</desc>
				<path d="M0 801.03 L212.6 801.03 L212.6 1387.24" class="st4"/>
				<rect x="83.9801" y="795.028" width="13.55" height="12.0001" class="st6"/>
				<text x="83.98" y="804.03" class="st2">No</text>			</g>
			<g id="shape9-48" transform="translate(283.465,-578.976)">
				<title>Dynamic connector.9</title>
				<desc>No</desc>
				<path d="M0 801.03 L212.6 801.03 L212.6 1330.55" class="st4"/>
				<rect x="84.4467" y="795.028" width="13.55" height="12.0001" class="st6"/>
				<text x="84.45" y="804.03" class="st2">No</text>			</g>
			<g id="shape12-55" transform="translate(297.638,-687.402)">
				<title>Process.12</title>
				<desc>Is the non-resident acting together with other non-residents ...</desc>
				<rect x="0" y="738.665" width="113.386" height="62.3622" class="st1"/>
				<text x="8.4" y="754.85" class="st2">Is the non-resident <tspan x="6" dy="1.2em" class="st3">acting together with </tspan><tspan
							x="7.1" dy="1.2em" class="st3">other non</tspan>-residents <tspan x="18.97" dy="1.2em" class="st3">to control you</tspan>?</text>			</g>
			<g id="shape15-61" transform="translate(439.37,-687.402)">
				<title>Process.15</title>
				<desc>Is it a back-to- back loan from a non-resident related party?</desc>
				<rect x="0" y="738.665" width="113.386" height="62.3622" class="st1"/>
				<text x="19.14" y="754.85" class="st2">Is it a back-to-<tspan x="14.37" dy="1.2em" class="st3">back loan from a</tspan><tspan
							x="24.74" dy="1.2em" class="st3">non</tspan>-resident<tspan x="21.48" dy="1.2em" class="st3">related party</tspan>?</text>			</g>
			<g id="shape16-67" transform="translate(488.976,-687.402)">
				<title>Dynamic connector.16</title>
				<desc>No</desc>
				<path d="M7.09 801.03 L7.09 1438.97" class="st4"/>
				<rect x="1.5714" y="823.626" width="13.55" height="12.0001" class="st6"/>
				<text x="1.57" y="832.63" class="st2">No</text>			</g>
			<g id="shape17-74" transform="translate(481.89,-687.402)">
				<title>Dynamic connector.17</title>
				<path d="M0 801.03 L0 818.04 L-269.29 818.04 L-269.29 830.94" class="st4"/>
			</g>
			<g id="shape14-79" transform="translate(354.331,-687.402)">
				<title>Dynamic connector.14</title>
				<desc>Yes</desc>
				<path d="M0 801.03 L0 818.04 L-93.69 818.04" class="st4"/>
				<rect x="-9.81133" y="812.193" width="17.3194" height="12.0001" class="st6"/>
				<text x="-9.81" y="821.19" class="st2">Yes</text>			</g>
			<g id="shape18-86" transform="translate(141.732,-510.236)">
				<title>Process.18</title>
				<desc>This is a related party debt</desc>
				<rect x="0" y="772.681" width="141.732" height="28.3465" class="st1"/>
				<text x="2.96" y="789.85" class="st2">This is a related party debt</text>			</g>
			<g id="shape19-89" transform="translate(205.512,-562.677)">
				<title>Dynamic connector.19</title>
				<desc>Yes</desc>
				<path d="M7.09 801.03 L7.09 819.6" class="st4"/>
				<rect x="-1.57315" y="807.075" width="17.3194" height="12.0001" class="st6"/>
				<text x="-1.57" y="816.07" class="st2">Yes</text>			</g>
			<g id="shape20-96" transform="translate(141.732,-439.37)">
				<title>Process.20</title>
				<desc>Did NRFAI arise for this arrangement in the previous year?</desc>
				<rect x="0" y="754.256" width="141.732" height="46.7717" class="st1"/>
				<text x="11.75" y="768.64" class="st2">Did NRFAI arise for this <tspan x="22.19" dy="1.2em" class="st3">arrangement in the</tspan><tspan
							x="33.94" dy="1.2em" class="st3">previous year</tspan>?</text>			</g>
			<g id="shape21-101" transform="translate(205.512,-510.236)">
				<title>Dynamic connector.21</title>
				<path d="M7.09 801.03 L7.09 819.6" class="st4"/>
			</g>
			<g id="shape23-106">
				<title>Process.23</title>
				<desc>Pay NRWT on NRFAI</desc>
				<rect x="0" y="758.508" width="113.386" height="42.5197" class="st1"/>
				<text x="30.72" y="776.77" class="st2">Pay NRWT  <tspan x="33.12" dy="1.2em" class="st3">on NRFAI</tspan></text>			</g>
			<g id="shape24-110" transform="translate(141.732,-323.15)">
				<title>Process.24</title>
				<desc>Are you and your commonly owned group’s prior year deductions...</desc>
				<rect x="0" y="711.736" width="141.732" height="89.2913" class="st1"/>
				<text x="27.33" y="723.38" class="st2">Are you and your <tspan x="6.56" dy="1.2em" class="st3">commonly owned group’s </tspan><tspan
							x="17.36" dy="1.2em" class="st3">prior year deductions </tspan><tspan x="21.22" dy="1.2em" class="st3">(</tspan>including fx) for all <tspan
							x="15.8" dy="1.2em" class="st3">related party financial </tspan><tspan x="2.62" dy="1.2em" class="st3">arrangements greater than </tspan><tspan
							x="47.25" dy="1.2em" class="st3">$</tspan>40,000? </text>			</g>
			<g id="shape25-119" transform="translate(219.685,-439.37)">
				<title>Dynamic connector.25</title>
				<desc>No</desc>
				<path d="M-7.09 801.03 L-7.09 822.44" class="st4"/>
				<rect x="-13.8617" y="808.492" width="13.55" height="12.0001" class="st6"/>
				<text x="-13.86" y="817.49" class="st2">No</text>			</g>
			<g id="shape26-126" transform="translate(141.732,-462.756)">
				<title>Dynamic connector.26</title>
				<desc>Yes</desc>
				<path d="M0 801.03 L-85.04 801.03 L-85.04 1215.74" class="st4"/>
				<rect x="-51.9691" y="797.37" width="17.3194" height="10.3733" class="st6"/>
				<text x="-51.97" y="805.24" class="st2">Yes</text>			</g>
			<g id="shape28-133" transform="translate(283.465,-360.709)">
				<title>Dynamic connector.28</title>
				<desc>No</desc>
				<path d="M0 793.94 L35.58 793.94" class="st4"/>
				<rect x="9.66589" y="787.941" width="13.55" height="12.0001" class="st6"/>
				<text x="9.67" y="796.94" class="st2">No</text>			</g>
			<g id="shape30-140" transform="translate(205.512,-323.15)">
				<title>Dynamic connector.30</title>
				<desc>Yes</desc>
				<path d="M7.09 801.03 L7.09 891.89" class="st4"/>
				<rect x="-0.313303" y="843.217" width="17.3194" height="12.0001" class="st6"/>
				<text x="-0.31" y="852.22" class="st2">Yes</text>			</g>
			<g id="shape31-147" transform="translate(141.732,-137.48)">
				<title>Process.31</title>
				<desc>Is Cumulative NRPI (to due date for filing annual calculation...</desc>
				<rect x="0" y="711.736" width="141.732" height="89.2913" class="st1"/>
				<text x="12.93" y="729.38" class="st2">Is Cumulative NRPI (to <tspan x="7.56" dy="1.2em" class="st3">due date for filing annual </tspan><tspan
							x="5.99" dy="1.2em" class="st3">calculation</tspan>) ÷ Cumulative <tspan x="9.09" dy="1.2em"
							class="st3">FA deductions </tspan>(to end of <tspan x="8.13" dy="1.2em" class="st3">previous year</tspan>) ≥ 90% or <tspan
							x="23.28" dy="1.2em" class="st3">treated as ≥ </tspan>90%?</text>			</g>
			<g id="shape34-155" transform="translate(212.598,-137.48)">
				<title>Dynamic connector.34</title>
				<desc>No</desc>
				<path d="M0 801.03 L0 853.47 L-155.91 853.47 L-155.91 890.47" class="st4"/>
				<rect x="-5.51521" y="821.906" width="13.55" height="12.0001" class="st6"/>
				<text x="-5.52" y="830.91" class="st2">No</text>			</g>
			<g id="shape35-162" transform="translate(325.984,-137.48)">
				<title>Process.35</title>
				<desc>Did the related party financial arrangement exist in the prev...</desc>
				<rect x="0" y="711.736" width="113.386" height="89.2913" class="st1"/>
				<text x="4.23" y="729.38" class="st2">Did the related party <tspan x="35.88" dy="1.2em" class="st3">financial </tspan><tspan
							x="4.25" dy="1.2em" class="st3">arrangement exist in </tspan><tspan x="5.7" dy="1.2em" class="st3">the previous year or </tspan><tspan
							x="13.35" dy="1.2em" class="st3">have you already </tspan><tspan x="22.43" dy="1.2em" class="st3">paid interest</tspan>?</text>			</g>
			<g id="shape38-170" transform="translate(325.984,-68.0315)">
				<title>Process.38</title>
				<desc>Have you elected to disregard the deferral calculation?</desc>
				<rect x="0" y="755.673" width="113.386" height="45.3543" class="st1"/>
				<text x="6.56" y="769.35" class="st2">Have you elected to <tspan x="2.02" dy="1.2em" class="st3">disregard the deferral </tspan><tspan
							x="27.3" dy="1.2em" class="st3">calcula</tspan>tion?</text>			</g>
			<g id="shape43-175" transform="translate(382.677,-68.0315)">
				<title>Dynamic connector.43</title>
				<desc>Yes</desc>
				<path d="M0 801.03 L0 847.8 L-263.77 847.8" class="st4"/>
				<rect x="-8.65976" y="818.587" width="17.3194" height="12.0001" class="st6"/>
				<text x="-8.66" y="827.59" class="st2">Yes</text>			</g>
			<g id="shape10-182" transform="translate(432.283,-663.307)">
				<title>Dynamic connector.10</title>
				<path d="M0 793.94 L-21.81 793.94" class="st7"/>
			</g>
			<g id="shape45-188" transform="translate(442.772,-586.06)">
				<title>Dynamic connector.45</title>
				<path d="M0 808.11 L17.91 808.12" class="st7"/>
			</g>
			<g id="shape51-193" transform="translate(375.591,-137.48)">
				<title>Dynamic connector.51</title>
				<desc>No</desc>
				<path d="M7.09 801.03 L7.09 819.6" class="st4"/>
				<rect x="0.311559" y="807.075" width="13.55" height="12.0001" class="st6"/>
				<text x="0.31" y="816.07" class="st2">No</text>			</g>
			<g id="shape52-200" transform="translate(324.567,-255.118)">
				<title>Process.52</title>
				<desc>Have you elected to disregard the de minimis?</desc>
				<rect x="0" y="754.256" width="114.803" height="46.7717" class="st1"/>
				<text x="7.27" y="768.64" class="st2">Have you elected to <tspan x="14.35" dy="1.2em" class="st3">disregard the  de </tspan><tspan
							x="35.06" dy="1.2em" class="st3">minimis</tspan>?</text>			</g>
			<g id="shape54-205" transform="translate(381.969,-255.118)">
				<title>Dynamic connector.54</title>
				<desc>Yes</desc>
				<path d="M0 801.03 L0 815.2 L-155.2 815.2 L-155.2 823.85" class="st4"/>
				<rect x="-86.2582" y="809.201" width="17.3194" height="12.0001" class="st6"/>
				<text x="-86.26" y="818.2" class="st2">Yes</text>			</g>
			<g id="shape55-212" transform="translate(81.3096,-455.669)">
				<title>Dynamic connector.55</title>
				<path d="M0 793.94 L-7.63 793.94" class="st7"/>
			</g>
			<g id="shape41-217" transform="translate(439.37,-97.7953)">
				<title>Dynamic connector.41</title>
				<desc>No</desc>
				<path d="M0 808.11 L39.69 808.11" class="st4"/>
				<rect x="15.8312" y="802.114" width="13.55" height="12.0001" class="st6"/>
				<text x="15.83" y="811.11" class="st2">No</text>			</g>
			<g id="shape29-224" transform="translate(324.567,-323.15)">
				<title>Process.29</title>
				<desc>Did the related party financial arrangement exist in the prev...</desc>
				<rect x="0" y="711.736" width="114.803" height="89.2913" class="st1"/>
				<text x="4.94" y="735.38" class="st2">Did the related party <tspan x="2.32" dy="1.2em" class="st3">financial arrangement </tspan><tspan
							x="6.23" dy="1.2em" class="st3">exist in the previous </tspan><tspan x="14.62" dy="1.2em" class="st3">year or have you </tspan><tspan
							x="2.82" dy="1.2em" class="st3">already paid interest</tspan>?</text>			</g>
			<g id="shape42-231" transform="translate(389.055,-323.15)">
				<title>Dynamic connector.42</title>
				<desc>No</desc>
				<path d="M-7.09 801.03 L-7.09 816.77" class="st4"/>
				<rect x="-13.8617" y="805.658" width="13.55" height="12.0001" class="st6"/>
				<text x="-13.86" y="814.66" class="st2">No</text>			</g>
			<g id="shape56-238" transform="translate(439.37,-189.142)">
				<title>Dynamic connector.56</title>
				<desc>Yes</desc>
				<path d="M0 808.04 L39.83 808.17" class="st4"/>
				<rect x="14.0174" y="802.114" width="17.3194" height="12.0001" class="st6"/>
				<text x="14.02" y="811.11" class="st2">Yes</text>			</g>
			<g id="shape57-245" transform="translate(439.37,-285.591)">
				<title>Dynamic connector.57</title>
				<desc>No</desc>
				<path d="M0 808.11 L39.69 808.11" class="st4"/>
				<rect x="15.8312" y="802.114" width="13.55" height="12.0001" class="st6"/>
				<text x="15.83" y="811.11" class="st2">No</text>			</g>
			<g id="shape58-252" transform="translate(439.37,-360.709)">
				<title>Dynamic connector.58</title>
				<desc>Yes</desc>
				<path d="M0 793.94 L39.83 793.94" class="st4"/>
				<rect x="14.0174" y="787.941" width="17.3194" height="12.0001" class="st6"/>
				<text x="14.02" y="796.94" class="st2">Yes</text>			</g>
			<g id="shape59-259" transform="translate(170.079,-77.9528)">
				<title>Dynamic connector.59</title>
				<path d="M0 793.94 L-45.9 793.94" class="st7"/>
			</g>
			<g id="shape60-264" transform="translate(283.465,-175.039)">
				<title>Dynamic connector.60</title>
				<desc>Yes</desc>
				<path d="M0 793.94 L37 793.94" class="st4"/>
				<rect x="12.6001" y="787.941" width="17.3194" height="12.0001" class="st6"/>
				<text x="12.6" y="796.94" class="st2">Yes</text>			</g>
			<g id="shape61-271" transform="translate(442.66,-642.753)">
				<title>Dynamic connector.61</title>
				<path d="M0 808.11 L17.91 808.12" class="st7"/>
			</g>
			<g id="shape62-276" transform="translate(480.201,-90.6429) rotate(-0.272835)">
				<title>Sheet.62</title>
				<path d="M0 801.03 L11.91 801.03" class="st9"/>
			</g>
			<g id="shape63-279" transform="translate(484.575,-182.014)">
				<title>Sheet.63</title>
				<path d="M0 801.03 L11.34 801.03" class="st9"/>
			</g>
			<g id="shape64-282" transform="translate(484.506,-278.493)">
				<title>Sheet.64</title>
				<path d="M0 801.03 L11.34 801.03" class="st9"/>
			</g>
			<g id="shape65-285" transform="translate(484.594,-367.806)">
				<title>Sheet.65</title>
				<path d="M0 801.03 L11.34 801.03" class="st9"/>
			</g>
			<g id="shape66-288" transform="translate(411.024,-711.496)">
				<title>Dynamic connector.66</title>
				<desc>No</desc>
				<path d="M0 793.94 L22.83 793.94" class="st4"/>
				<rect x="7.39817" y="787.941" width="13.55" height="12.0001" class="st6"/>
				<text x="7.4" y="796.94" class="st2">No</text>			</g>
		</g>
	</g>
</svg>
