<?xml version="1.0" encoding="utf-8"?>
<!-- Generator: Adobe Illustrator 16.2.0, SVG Export Plug-In . SVG Version: 6.00 Build 0)  -->
<!DOCTYPE svg PUBLIC "-//W3C//DTD SVG 1.1//EN" "http://www.w3.org/Graphics/SVG/1.1/DTD/svg11.dtd">
<svg version="1.1" id="Layer_1" xmlns="http://www.w3.org/2000/svg" xmlns:xlink="http://www.w3.org/1999/xlink" x="0px" y="0px"
	 width="212px" height="23px" viewBox="0 0 212 23" enable-background="new 0 0 212 23" xml:space="preserve">
<g>
	<defs>
		<rect id="SVGID_1_" y="0.371" width="211.217" height="22.097"/>
	</defs>
	<clipPath id="SVGID_2_">
		<use xlink:href="#SVGID_1_"  overflow="visible"/>
	</clipPath>
	<path clip-path="url(#SVGID_2_)" fill="#231F20" d="M92.75,16.077h-2.033V8.526c0-1.006-0.09-1.362-0.357-1.72
		c-0.224-0.291-0.626-0.448-1.14-0.448c-0.804,0-2.01,0.626-2.77,1.431v8.288h-1.034c-0.651,0-0.999-0.489-0.999-1.254V7.744
		c0-1.341-0.111-1.854-0.424-2.658l1.943-0.536c0.268,0.536,0.38,1.027,0.38,1.72c0.648-0.536,0.983-0.826,1.452-1.095
		c0.648-0.379,1.385-0.558,2.078-0.558c1.184,0,2.234,0.625,2.636,1.586C92.66,6.604,92.75,7.097,92.75,7.61V16.077z
		 M101.704,13.239V7.387c-0.581-0.692-1.318-1.05-2.368-1.05c-0.849,0-1.519,0.424-1.944,1.14c-0.424,0.736-0.581,1.63-0.581,3.082
		c0,2.167,0.269,2.771,0.872,3.396c0.379,0.401,0.893,0.581,1.653,0.581C100.521,14.536,101.324,13.91,101.704,13.239
		 M104.094,16.077h-1.966c-0.112-0.336-0.134-0.491-0.201-1.051c-0.782,0.827-1.698,1.229-2.882,1.229
		c-2.859,0-4.535-2.146-4.535-5.674c0-2.413,0.827-4.268,2.346-5.25c0.693-0.447,1.385-0.648,2.189-0.648
		c1.073,0,1.966,0.38,2.726,1.296c0-0.313-0.045-2.021-0.045-2.781V0.88l2.056,0.335v11.108
		C103.782,14.134,103.848,15.385,104.094,16.077 M80.211,10.582c-0.312-0.023-0.491-0.045-0.67-0.045
		c-1.541,0-2.479,0.29-2.926,0.804c-0.425,0.492-0.581,0.894-0.581,1.631c0,1.229,0.626,1.943,1.765,1.943
		c0.938,0,1.832-0.58,2.346-1.475L80.211,10.582z M83.116,15.161l-1.05,1.385c-0.693-0.269-1.229-0.826-1.497-1.608
		c-0.29,0.357-1.228,1.475-3.172,1.475c-2.234,0-3.619-1.14-3.619-3.284c0-2.591,2.077-3.977,5.696-3.977
		c0.268,0,0.492,0,0.782,0.022V8.437c0-1.317-0.179-2.211-1.742-2.211c-1.184,0-2.525,0.581-3.441,1.273l-0.938-1.476
		C75.23,5.398,76.66,4.55,78.826,4.55c1.631,0,2.815,0.603,3.24,1.787c0.178,0.492,0.223,0.871,0.223,1.966
		c0,0.804-0.089,2.524-0.089,4.155C82.2,14,82.244,14.625,83.116,15.161 M72.92,16.055c-0.424,0.179-0.782,0.245-1.274,0.245
		c-0.804,0-1.317-0.245-1.742-0.848c-0.335-0.47-0.425-0.85-0.425-1.944V4.385c0-1.586-0.066-2.346-0.245-3.217l2.144-0.447
		c0.202,0.737,0.202,1.81,0.202,3.195v9.056c0,1.184,0.066,1.452,0.29,1.653c0.134,0.155,0.447,0.224,0.692,0.155L72.92,16.055z
		 M65.101,10.582c-0.312-0.023-0.491-0.045-0.67-0.045c-1.541,0-2.479,0.29-2.926,0.804c-0.425,0.492-0.581,0.894-0.581,1.631
		c0,1.229,0.625,1.943,1.765,1.943c0.938,0,1.832-0.58,2.345-1.475L65.101,10.582z M68.006,15.161l-1.05,1.385
		c-0.693-0.269-1.229-0.826-1.497-1.608c-0.291,0.357-1.229,1.475-3.172,1.475c-2.234,0-3.619-1.14-3.619-3.284
		c0-2.591,2.077-3.977,5.696-3.977c0.268,0,0.492,0,0.782,0.022V8.437c0-1.317-0.179-2.211-1.742-2.211
		c-1.184,0-2.525,0.581-3.441,1.273l-0.938-1.476c1.095-0.625,2.524-1.474,4.691-1.474c1.631,0,2.815,0.603,3.24,1.787
		c0.178,0.492,0.223,0.871,0.223,1.966c0,0.804-0.089,2.524-0.089,4.155C67.09,14,67.134,14.625,68.006,15.161 M55.313,9.397
		c0-1.073-0.246-1.966-0.693-2.524c-0.357-0.447-0.893-0.782-1.608-0.782c-1.564,0-2.346,1.273-2.346,3.307H55.313z M57.456,10.917
		h-6.813v0.268c0,0.96,0.134,1.697,0.469,2.234c0.581,0.893,1.496,1.317,2.569,1.317c1.05,0,1.944-0.357,2.748-1.072l0.782,1.229
		c-1.095,0.961-2.413,1.43-3.865,1.43c-3.105,0-5.004-2.256-5.004-5.92c0-1.943,0.38-3.194,1.34-4.334
		c0.894-1.05,1.988-1.541,3.373-1.541c1.251,0,2.257,0.402,3.039,1.206c0.983,1.005,1.34,2.256,1.362,4.825V10.917z M36.613,4.885
		l-3.127,11.281h-1.988l-1.631-6.099c-0.201-0.781-0.693-2.636-0.693-2.636h-0.067c0,0-0.447,1.899-0.603,2.502l-1.675,6.232h-1.966
		L21.802,4.975l2.078-0.336l1.429,6.278c0.246,1.117,0.581,2.747,0.581,2.747h0.067c0,0,0.246-1.586,0.514-2.546l1.698-6.233h2.122
		l1.564,6.054c0.313,1.206,0.625,2.614,0.625,2.726h0.09c0-0.111,0.357-1.921,0.514-2.658l1.385-6.121H36.613z M19.027,9.397
		c0-1.073-0.246-1.966-0.692-2.524c-0.358-0.447-0.894-0.782-1.609-0.782c-1.564,0-2.346,1.273-2.346,3.307H19.027z M21.172,10.917
		h-6.814v0.268c0,0.96,0.134,1.697,0.469,2.234c0.581,0.893,1.497,1.317,2.569,1.317c1.05,0,1.944-0.357,2.748-1.072l0.782,1.229
		c-1.095,0.961-2.413,1.43-3.865,1.43c-3.105,0-5.004-2.256-5.004-5.92c0-1.943,0.38-3.194,1.34-4.334
		c0.894-1.05,1.989-1.541,3.374-1.541c1.251,0,2.256,0.402,3.038,1.206c0.983,1.005,1.34,2.256,1.363,4.825V10.917z M211.069,4.917
		l-0.556,1.444h-2.2v6.715c0,1.378,0.333,1.801,1.444,1.801c0.377,0,0.689-0.067,1.045-0.224l0.244,1.245
		c-0.623,0.312-1.289,0.467-2.022,0.467c-0.734,0-1.534-0.222-1.89-0.556c-0.467-0.422-0.822-0.644-0.822-2.267V6.361h-1.334V4.917
		h1.334c0-0.866,0.021-2,0.133-2.846l2.111-0.488c-0.088,0.8-0.199,2.201-0.199,3.334H211.069z M203.538,16.055h-2.022V8.541
		c0-1-0.09-1.356-0.355-1.711c-0.222-0.289-0.623-0.445-1.134-0.445c-0.8,0-2.001,0.622-2.756,1.422v8.248h-2.024V7.763
		c0-1.334-0.111-1.845-0.422-2.645l1.934-0.534c0.268,0.534,0.379,1.022,0.379,1.712c0.645-0.534,0.978-0.823,1.444-1.089
		c0.646-0.379,1.378-0.557,2.068-0.557c1.178,0,2.222,0.622,2.623,1.578c0.177,0.4,0.266,0.89,0.266,1.401V16.055z M191.329,9.407
		c0-1.066-0.245-1.955-0.688-2.512c-0.356-0.444-0.891-0.777-1.602-0.777c-1.556,0-2.334,1.267-2.334,3.289H191.329z
		 M193.463,10.919h-6.779v0.267c0,0.956,0.134,1.69,0.467,2.224c0.578,0.89,1.488,1.312,2.556,1.312
		c1.046,0,1.935-0.356,2.734-1.067l0.778,1.224c-1.09,0.955-2.401,1.422-3.846,1.422c-3.09,0-4.98-2.245-4.98-5.892
		c0-1.934,0.379-3.179,1.335-4.312c0.889-1.045,1.978-1.534,3.356-1.534c1.245,0,2.245,0.4,3.023,1.2
		c0.979,1.001,1.334,2.246,1.355,4.802V10.919z M182.816,16.055h-2.021V8.073c0-1.267-0.402-1.712-1.334-1.712
		c-1.023,0-1.758,0.667-2.602,1.513v8.181h-2.001V8.119c0-1.245-0.354-1.713-1.378-1.713c-0.756,0-1.6,0.379-2.557,1.289v8.359
		h-2.022V7.874c0-1.578-0.089-2-0.401-2.779l1.912-0.467c0.223,0.379,0.379,0.934,0.379,1.557c0.955-1.001,2.09-1.579,3.135-1.579
		c1.043,0,2.088,0.557,2.645,1.756c1.111-1.178,2.268-1.756,3.4-1.756c1.734,0,2.846,1.089,2.846,3.135V16.055z M166.813,16.055
		h-2.023V8.541c0-1-0.089-1.356-0.355-1.711c-0.223-0.289-0.622-0.445-1.133-0.445c-0.801,0-2.002,0.622-2.758,1.422v8.248h-2.022
		V7.763c0-1.334-0.111-1.845-0.423-2.645l1.935-0.534c0.267,0.534,0.378,1.022,0.378,1.712c0.645-0.534,0.979-0.823,1.445-1.089
		c0.645-0.379,1.378-0.557,2.066-0.557c1.178,0,2.224,0.622,2.623,1.578c0.178,0.4,0.268,0.89,0.268,1.401V16.055z M157.051,4.673
		l-0.713,2.045c-0.199-0.067-0.354-0.111-0.578-0.111c-1.244,0-2.311,1.045-2.311,2.268v7.181h-2.046V7.874
		c0-1.356-0.155-2.09-0.422-2.779l1.978-0.511c0.201,0.423,0.379,1.155,0.379,1.712v0.2c0.889-1.289,1.844-1.935,3.023-1.935
		C156.627,4.562,156.872,4.605,157.051,4.673 M147.486,9.407c0-1.066-0.245-1.955-0.689-2.512c-0.355-0.444-0.89-0.777-1.601-0.777
		c-1.556,0-2.334,1.267-2.334,3.289H147.486z M149.62,10.919h-6.78v0.267c0,0.956,0.133,1.69,0.467,2.224
		c0.578,0.89,1.49,1.312,2.557,1.312c1.045,0,1.934-0.356,2.734-1.067l0.777,1.224c-1.089,0.955-2.4,1.422-3.846,1.422
		c-3.089,0-4.979-2.245-4.979-5.892c0-1.934,0.377-3.179,1.334-4.312c0.889-1.045,1.978-1.534,3.356-1.534
		c1.244,0,2.245,0.4,3.022,1.2c0.979,1.001,1.334,2.246,1.356,4.802V10.919z M140.313,4.917l-4.068,11.227h-1.912l-3.979-11.182
		l2.111-0.334l2.201,6.735c0.244,0.757,0.489,1.646,0.668,2.401c0.176-0.667,0.399-1.534,0.711-2.445l2.111-6.402H140.313z
		 M127.797,10.675c0-3.446-1-4.49-2.601-4.49c-1.778,0-2.513,1.268-2.513,4.068c0,3.4,0.867,4.534,2.602,4.534
		C126.842,14.787,127.797,13.587,127.797,10.675 M130.086,10.586c0,3.535-1.889,5.779-4.846,5.779c-2.979,0-4.822-2.267-4.822-5.891
		c0-3.601,1.844-5.869,4.778-5.869C128.486,4.605,130.086,7.229,130.086,10.586 M118.942,15.054
		c-1.245,0.778-2.912,1.223-4.535,1.223c-2.045,0-3.668-0.688-4.846-2.066c-1.224-1.423-1.778-3.225-1.778-5.736
		c0-2.127,0.889-4.561,2.645-6.006c1.111-0.911,2.334-1.313,3.847-1.313c1.667,0,3.134,0.489,4.335,1.534l-1.023,1.334
		c-1.134-0.821-2.089-1.155-3.268-1.155c-1.467,0-2.555,0.612-3.29,1.955c-0.535,0.979-0.845,1.939-0.845,3.762
		c0,2.111,0.379,3.69,1.09,4.624c0.667,0.867,1.979,1.379,3.29,1.379c0.866,0,1.646-0.224,2.267-0.578V9.652h-2.822l-0.356-1.757
		h5.291V15.054z M48.651,14.64l-0.533,1.778h-9.136v-1.646l6.18-9.763c0.333-0.578,0.778-1.178,1.089-1.578
		c-0.445,0.044-1.001,0.066-1.756,0.066H39.25L39.76,1.72h8.803v1.712l-6.113,9.763c-0.334,0.578-0.69,1.022-0.956,1.468
		c0.466-0.022,0.978-0.022,1.534-0.022H48.651z M10.548,16.235h-2.29L4.234,8.1C3.456,6.521,2.656,4.788,2.367,3.898L2.234,3.921
		C2.345,5.232,2.39,6.767,2.412,8.188L2.5,16.235H1.66c-0.97,0-1.316-0.938-1.316-1.996V0.92h2.49l4.268,8.446
		c0.645,1.268,1.4,3.246,1.512,3.669l0.133-0.045c-0.044-0.444-0.222-2.867-0.222-4.557L8.48,0.92h2.068V16.235z M0.327,21.131
		c0,0,26.579-3.001,51.719-3.001c25.678,0,52.415,3.001,52.415,3.001v1.059c0,0-26.914-2.844-52.411-2.844
		c-25.144,0-51.723,2.844-51.723,2.844V21.131z"/>
</g>
</svg>
