<?xml version="1.0" encoding="UTF-8" standalone="no"?>
<!DOCTYPE svg PUBLIC "-//W3C//DTD SVG 1.1//EN" "http://www.w3.org/Graphics/SVG/1.1/DTD/svg11.dtd">
<!-- Generated by Microsoft Visio, SVG Export 01-flowchart-contractors.svg Page-1 -->
<svg xmlns="http://www.w3.org/2000/svg" xmlns:xlink="http://www.w3.org/1999/xlink" xmlns:ev="http://www.w3.org/2001/xml-events"
		width="5.5257in" height="6.11625in" viewBox="0 0 397.85 440.37" xml:space="preserve" color-interpolation-filters="sRGB"
		class="st8">
	<style type="text/css">
	<![CDATA[
		.st1 {stroke:none;stroke-linecap:round;stroke-linejoin:round;stroke-width:0.75}
		.st2 {fill:#000000;font-family:Verdana;font-size:0.666664em}
		.st3 {stroke:#000000;stroke-linecap:round;stroke-linejoin:round;stroke-width:1}
		.st4 {fill:#000000;font-family:Verdana;font-size:0.833336em}
		.st5 {font-size:1em}
		.st6 {marker-end:url(#mrkr4-74);stroke:#000000;stroke-linecap:round;stroke-linejoin:round;stroke-width:1}
		.st7 {fill:#000000;fill-opacity:1;stroke:#000000;stroke-opacity:1;stroke-width:0.28409090909091}
		.st8 {fill:none;fill-rule:evenodd;font-size:12px;overflow:visible;stroke-linecap:square;stroke-miterlimit:3}
	]]>
	</style>

	<defs id="Markers">
		<g id="lend4">
			<path d="M 2 1 L 0 0 L 2 -1 L 2 1 " style="stroke:none"/>
		</g>
		<marker id="mrkr4-74" class="st7" refX="-7.04" orient="auto" markerUnits="strokeWidth" overflow="visible">
			<use xlink:href="#lend4" transform="scale(-3.52,-3.52) "/>
		</marker>
	</defs>
	<g>
		<title>Page-1</title>
		<g id="shape18-1" transform="translate(120.972,-347.744)">
			<title>Sheet.18</title>
			<desc>No</desc>
			<path d="M14.17 433.28 L0 433.28 L0 440.37 L14.17 440.37 L14.17 433.28" class="st1"/>
			<text x="0" y="439.23" class="st2">No</text>		</g>
		<g id="shape33-5" transform="translate(64.2795,-298.138)">
			<title>Sheet.33</title>
			<desc>Yes</desc>
			<path d="M14.17 433.28 L0 433.28 L0 440.37 L14.17 440.37 L14.17 433.28" class="st1"/>
			<text x="0" y="439.23" class="st2">Yes</text>		</g>
		<g id="shape35-9" transform="translate(0.5,-390.264)">
			<title>Sheet.35</title>
			<desc>Schedular payment rules apply</desc>
			<path d="M0 399.14 L0 398.26 L0 397.38 L0.26 396.72 L0.52 395.83 L1.03 395.17 L1.55 394.51 L2.07 393.85 L2.84 393.19
						 L3.36 392.75 L4.13 392.31 L4.91 391.87 L5.68 391.43 L6.72 391.2 L7.49 390.98 L8.52 390.76 L9.56 390.76 L103.57
						 390.76 L104.6 390.76 L105.64 390.98 L106.67 391.2 L107.45 391.43 L108.22 391.87 L109 392.31 L109.77 392.75
						 L110.54 393.19 L111.06 393.85 L111.58 394.51 L112.09 395.17 L112.61 395.83 L112.87 396.72 L113.13 397.38
						 L113.39 398.26 L113.39 399.14 L113.39 431.99 L113.39 432.87 L113.13 433.76 L112.87 434.42 L112.61 435.3
						 L112.09 435.96 L111.58 436.62 L111.06 437.28 L110.54 437.94 L109.77 438.39 L109 438.83 L108.22 439.27 L107.45
						 439.71 L106.67 439.93 L105.64 440.15 L104.6 440.37 L103.57 440.37 L9.56 440.37 L8.52 440.37 L7.49 440.15
						 L6.72 439.93 L5.68 439.71 L4.91 439.27 L4.13 438.83 L3.36 438.39 L2.84 437.94 L2.07 437.28 L1.55 436.62
						 L1.03 435.96 L0.52 435.3 L0.26 434.42 L0 433.76 L0 432.87 L0 431.99 L0 399.14" class="st3"/>
			<text x="7.93" y="411.37" class="st4">Schedular payment<tspan x="29.12" dy="1.38em" class="st5">r</tspan>ules apply</text>		</g>
		<g id="shape39-14" transform="translate(0.5,-312.311)">
			<title>Sheet.39</title>
			<desc>Has the contractor provided their name and IRD number?</desc>
			<path d="M0 392.87 L0 391.85 L0 390.84 L0.26 390.08 L0.77 389.06 L1.03 388.3 L1.55 387.54 L2.07 386.77 L2.84 386.01 L3.36
						 385.5 L4.13 384.99 L4.91 384.49 L5.94 383.98 L6.72 383.72 L7.75 383.47 L8.52 383.47 L9.56 383.22 L103.83
						 383.22 L104.6 383.47 L105.64 383.47 L106.67 383.72 L107.45 383.98 L108.22 384.49 L109 384.99 L109.77 385.5
						 L110.54 386.01 L111.06 386.77 L111.84 387.54 L112.09 388.3 L112.61 389.06 L112.87 390.08 L113.13 390.84
						 L113.39 391.85 L113.39 392.87 L113.39 430.72 L113.39 431.73 L113.13 432.75 L112.87 433.77 L112.61 434.53
						 L112.09 435.29 L111.84 436.05 L111.06 436.81 L110.54 437.58 L109.77 438.08 L109 438.59 L108.22 439.1 L107.45
						 439.61 L106.67 439.86 L105.64 440.12 L104.6 440.37 L103.83 440.37 L9.56 440.37 L8.52 440.37 L7.75 440.12
						 L6.72 439.86 L5.94 439.61 L4.91 439.1 L4.13 438.59 L3.36 438.08 L2.84 437.58 L2.07 436.81 L1.55 436.05 L1.03
						 435.29 L0.77 434.53 L0.26 433.77 L0 432.75 L0 431.73 L0 430.72 L0 392.87" class="st3"/>
			<text x="10.04" y="401.59" class="st4">Has the contractor <tspan x="5.73" dy="1.2em" class="st5">provided their name</tspan><tspan
						x="12.32" dy="1.38em" class="st5">a</tspan>nd IRD number?</text>		</g>
		<g id="shape44-20" transform="translate(0.5,-234.358)">
			<title>Sheet.44</title>
			<desc>Has the Commissioner provided a prescribed rate?</desc>
			<path d="M0 393.04 L0 392.03 L0 391.02 L0.26 390.26 L0.52 389.25 L1.03 388.49 L1.55 387.73 L2.07 386.97 L2.84 386.21
						 L3.36 385.7 L4.13 385.2 L4.91 384.69 L5.68 384.18 L6.72 383.93 L7.49 383.68 L8.52 383.68 L9.56 383.68 L103.57
						 383.68 L104.6 383.68 L105.64 383.68 L106.67 383.93 L107.45 384.18 L108.22 384.69 L109 385.2 L109.77 385.7
						 L110.54 386.21 L111.06 386.97 L111.58 387.73 L112.09 388.49 L112.61 389.25 L112.87 390.26 L113.13 391.02
						 L113.39 392.03 L113.39 393.04 L113.39 431.01 L113.39 431.76 L113.13 432.78 L112.87 433.79 L112.61 434.55
						 L112.09 435.31 L111.58 436.32 L111.06 436.83 L110.54 437.59 L109.77 438.09 L109 438.85 L108.22 439.36 L107.45
						 439.61 L106.67 439.86 L105.64 440.12 L104.6 440.37 L103.57 440.37 L9.56 440.37 L8.52 440.37 L7.49 440.12
						 L6.72 439.86 L5.68 439.61 L4.91 439.36 L4.13 438.85 L3.36 438.09 L2.84 437.59 L2.07 436.83 L1.55 436.32
						 L1.03 435.31 L0.52 434.55 L0.26 433.79 L0 432.78 L0 431.76 L0 431.01 L0 393.04" class="st3"/>
			<text x="37.46" y="395.82" class="st4">Has the <tspan x="21.18" dy="1.2em" class="st5">Commissioner</tspan> <tspan
						x="30.11" dy="1.2em" class="st5">provided a </tspan><tspan x="15.97" dy="1.38em" class="st5">prescribed</tspan> rate?</text>		</g>
		<g id="shape49-27" transform="translate(0.5,-156.406)">
			<title>Sheet.49</title>
			<desc>Has the contractor selected a rate?</desc>
			<path d="M0 393.25 L0 392.24 L0 391.24 L0.26 390.48 L0.77 389.47 L1.03 388.72 L1.55 387.96 L2.07 387.2 L2.84 386.45 L3.36
						 385.94 L4.13 385.44 L4.91 384.94 L5.94 384.43 L6.72 384.18 L7.75 383.93 L8.52 383.93 L9.56 383.68 L103.83
						 383.68 L104.6 383.93 L105.64 383.93 L106.67 384.18 L107.45 384.43 L108.22 384.94 L109 385.44 L109.77 385.94
						 L110.54 386.45 L111.06 387.2 L111.84 387.96 L112.09 388.72 L112.61 389.47 L112.87 390.48 L113.13 391.24
						 L113.39 392.24 L113.39 393.25 L113.39 430.8 L113.39 431.8 L113.13 432.81 L112.87 433.82 L112.61 434.57 L112.09
						 435.33 L111.84 436.09 L111.06 436.84 L110.54 437.6 L109.77 438.1 L109 438.61 L108.22 439.11 L107.45 439.61
						 L106.67 439.87 L105.64 440.12 L104.6 440.37 L103.83 440.37 L9.56 440.37 L8.52 440.37 L7.75 440.12 L6.72
						 439.87 L5.94 439.61 L4.91 439.11 L4.13 438.61 L3.36 438.1 L2.84 437.6 L2.07 436.84 L1.55 436.09 L1.03 435.33
						 L0.77 434.57 L0.26 433.82 L0 432.81 L0 431.8 L0 430.8 L0 393.25" class="st3"/>
			<text x="10.04" y="407.82" class="st4">Has the contractor <tspan x="16.76" dy="1.38em" class="st5">selected a rate</tspan>?</text>		</g>
		<g id="shape53-32" transform="translate(0.5,-78.4528)">
			<title>Sheet.53</title>
			<desc>Is the selected rate greater than the minimum rate?</desc>
			<path d="M0 393.29 L0 392.28 L0 391.27 L0.26 390.26 L0.77 389.5 L1.03 388.74 L1.55 387.98 L2.07 387.22 L2.84 386.46 L3.36
						 385.96 L4.13 385.2 L4.91 384.94 L5.94 384.44 L6.72 384.18 L7.75 383.93 L8.52 383.68 L9.56 383.68 L103.83
						 383.68 L104.6 383.68 L105.64 383.93 L106.67 384.18 L107.45 384.44 L108.22 384.94 L109 385.2 L109.77 385.96
						 L110.54 386.46 L111.06 387.22 L111.84 387.98 L112.09 388.74 L112.61 389.5 L112.87 390.26 L113.13 391.27
						 L113.39 392.28 L113.39 393.29 L113.39 431.01 L113.39 432.02 L113.13 433.03 L112.87 433.79 L112.61 434.8
						 L112.09 435.56 L111.84 436.32 L111.06 437.08 L110.54 437.84 L109.77 438.35 L109 438.85 L108.22 439.36 L107.45
						 439.86 L106.67 440.12 L105.64 440.37 L104.6 440.37 L103.83 440.37 L9.56 440.37 L8.52 440.37 L7.75 440.37
						 L6.72 440.12 L5.94 439.86 L4.91 439.36 L4.13 438.85 L3.36 438.35 L2.84 437.84 L2.07 437.08 L1.55 436.32
						 L1.03 435.56 L0.77 434.8 L0.26 433.79 L0 433.03 L0 432.02 L0 431.01 L0 393.29" class="st3"/>
			<text x="7.91" y="401.82" class="st4">Is the selected rate<tspan x="15.45" dy="1.2em" class="st5">greater than the</tspan><tspan
						x="18.46" dy="1.38em" class="st5">minimum rate</tspan>?</text>		</g>
		<g id="shape59-38" transform="translate(141.383,-78.4528)">
			<title>Sheet.59</title>
			<desc>Does the contractor have a special tax code?</desc>
			<path d="M0 393.04 L0.26 392.03 L0.26 391.02 L0.52 390.26 L0.78 389.25 L1.3 388.49 L1.82 387.73 L2.34 386.97 L2.86 386.46
						 L3.63 385.7 L4.41 385.2 L5.19 384.69 L5.97 384.44 L7.01 383.93 L7.79 383.68 L8.83 383.68 L9.87 383.68 L104.37
						 383.68 L105.41 383.68 L106.45 383.68 L107.23 383.93 L108.26 384.44 L109.04 384.69 L109.82 385.2 L110.6 385.7
						 L111.38 386.46 L111.9 386.97 L112.42 387.73 L112.94 388.49 L113.46 389.25 L113.72 390.26 L113.98 391.02
						 L113.98 392.03 L114.24 393.04 L114.24 431.01 L113.98 431.76 L113.98 432.78 L113.72 433.79 L113.46 434.55
						 L112.94 435.31 L112.42 436.07 L111.9 436.83 L111.38 437.59 L110.6 438.09 L109.82 438.85 L109.04 439.1 L108.26
						 439.61 L107.23 439.86 L106.45 440.12 L105.41 440.37 L104.37 440.37 L9.87 440.37 L8.83 440.37 L7.79 440.12
						 L7.01 439.86 L5.97 439.61 L5.19 439.1 L4.41 438.85 L3.63 438.09 L2.86 437.59 L2.34 436.83 L1.82 436.07 L1.3
						 435.31 L0.78 434.55 L0.52 433.79 L0.26 432.78 L0.26 431.76 L0 431.01 L0 393.04" class="st3"/>
			<text x="7.36" y="401.82" class="st4">Does the contractor<tspan x="11.75" dy="1.2em" class="st5">have a</tspan> special tax<tspan
						x="42.66" dy="1.38em" class="st5">code</tspan>?</text>		</g>
		<g id="shape64-44" transform="translate(141.383,-312.311)">
			<title>Sheet.64</title>
			<desc>Withhold at no-notification rate</desc>
			<path d="M0 383.34 L114.24 383.34 L114.24 440.37 L0 440.37 L0 383.34" class="st3"/>
			<text x="18.02" y="407.65" class="st4">Withhold at no-<tspan x="17.45" dy="1.38em" class="st5">notification rate</tspan></text>		</g>
		<g id="shape70-49" transform="translate(141.383,-156.406)">
			<title>Sheet.70</title>
			<desc>Withhold at standard rate</desc>
			<path d="M0 383.68 L114.24 383.68 L114.24 440.37 L0 440.37 L0 383.68" class="st3"/>
			<text x="28.25" y="407.82" class="st4">Withhold at<tspan x="23.16" dy="1.38em" class="st5">s</tspan>tandard rate</text>		</g>
		<g id="shape74-54" transform="translate(0.5,-0.5)">
			<title>Sheet.74</title>
			<desc>Withhold at selected rate</desc>
			<path d="M0 383.68 L113.39 383.68 L113.39 440.37 L0 440.37 L0 383.68" class="st3"/>
			<text x="27.83" y="407.82" class="st4">Withhold at <tspan x="24.25" dy="1.38em" class="st5">s</tspan>elected rate</text>		</g>
		<g id="shape78-59" transform="translate(141.383,-234.358)">
			<title>Sheet.78</title>
			<desc>Withhold at prescribed rate</desc>
			<path d="M0 383.68 L114.24 383.68 L114.24 440.37 L0 440.37 L0 383.68" class="st3"/>
			<text x="28.25" y="407.82" class="st4">Withhold at<tspan x="19.12" dy="1.38em" class="st5">prescribed rate</tspan></text>		</g>
		<g id="shape82-64" transform="translate(283.965,-78.4528)">
			<title>Sheet.82</title>
			<desc>Withhold at minimum rate</desc>
			<path d="M0 383.68 L113.39 383.68 L113.39 440.37 L0 440.37 L0 383.68" class="st3"/>
			<text x="27.83" y="407.82" class="st4">Withhold at<tspan x="21.19" dy="1.38em" class="st5">minimum</tspan> rate</text>		</g>
		<g id="shape111-69" transform="translate(198.5,-78.4528)">
			<title>Dynamic connector</title>
			<path d="M0 440.37 L0 489.98 L-77.57 489.98" class="st6"/>
		</g>
		<g id="shape113-75" transform="translate(113.886,-99.7126)">
			<title>Dynamic connector.113</title>
			<path d="M0 433.28 L20.46 433.28" class="st6"/>
		</g>
		<g id="shape114-80" transform="translate(113.886,-177.665)">
			<title>Dynamic connector.114</title>
			<path d="M0 433.28 L20.46 433.28" class="st6"/>
		</g>
		<g id="shape115-85" transform="translate(113.886,-255.618)">
			<title>Dynamic connector.115</title>
			<path d="M0 433.28 L20.46 433.28" class="st6"/>
		</g>
		<g id="shape116-90" transform="translate(113.886,-333.741)">
			<title>Dynamic connector.116</title>
			<path d="M0 433.28 L20.46 433.28" class="st6"/>
		</g>
		<g id="shape117-95" transform="translate(50.1063,-390.264)">
			<title>Dynamic connector.117</title>
			<path d="M7.09 440.37 L7.09 454.13" class="st6"/>
		</g>
		<g id="shape121-100" transform="translate(50.1063,-312.311)">
			<title>Dynamic connector.121</title>
			<path d="M7.09 440.37 L7.09 454.59" class="st6"/>
		</g>
		<g id="shape122-105" transform="translate(50.1063,-234.358)">
			<title>Dynamic connector.122</title>
			<path d="M7.09 440.37 L7.09 454.59" class="st6"/>
		</g>
		<g id="shape123-110" transform="translate(50.1063,-156.406)">
			<title>Dynamic connector.123</title>
			<path d="M7.09 440.37 L7.09 454.59" class="st6"/>
		</g>
		<g id="shape124-115" transform="translate(50.1063,-78.4528)">
			<title>Dynamic connector.124</title>
			<path d="M7.09 440.37 L7.09 454.59" class="st6"/>
		</g>
		<g id="shape125-120" transform="translate(255.618,-99.7126)">
			<title>Dynamic connector.125</title>
			<path d="M0 433.28 L21.31 433.28" class="st6"/>
		</g>
		<g id="shape126-125" transform="translate(120.972,-191.839)">
			<title>Sheet.126</title>
			<desc>No</desc>
			<path d="M14.17 433.28 L0 433.28 L0 440.37 L14.17 440.37 L14.17 433.28" class="st1"/>
			<text x="0" y="439.23" class="st2">No</text>		</g>
		<g id="shape127-129" transform="translate(120.972,-269.791)">
			<title>Sheet.127</title>
			<desc>Yes</desc>
			<path d="M14.17 433.28 L0 433.28 L0 440.37 L14.17 440.37 L14.17 433.28" class="st1"/>
			<text x="0" y="439.23" class="st2">Yes</text>		</g>
		<g id="shape128-133" transform="translate(64.2795,-142.232)">
			<title>Sheet.128</title>
			<desc>Yes</desc>
			<path d="M14.17 433.28 L0 433.28 L0 440.37 L14.17 440.37 L14.17 433.28" class="st1"/>
			<text x="0" y="439.23" class="st2">Yes</text>		</g>
		<g id="shape129-137" transform="translate(64.2795,-64.2795)">
			<title>Sheet.129</title>
			<desc>Yes</desc>
			<path d="M14.17 433.28 L0 433.28 L0 440.37 L14.17 440.37 L14.17 433.28" class="st1"/>
			<text x="0" y="439.23" class="st2">Yes</text>		</g>
		<g id="shape130-141" transform="translate(206.012,-43.0197)">
			<title>Sheet.130</title>
			<desc>Yes</desc>
			<path d="M14.17 433.28 L0 433.28 L0 440.37 L14.17 440.37 L14.17 433.28" class="st1"/>
			<text x="0" y="439.23" class="st2">Yes</text>		</g>
		<g id="shape131-145" transform="translate(120.972,-113.886)">
			<title>Sheet.131</title>
			<desc>No</desc>
			<path d="M14.17 433.28 L0 433.28 L0 440.37 L14.17 440.37 L14.17 433.28" class="st1"/>
			<text x="0" y="439.23" class="st2">No</text>		</g>
		<g id="shape132-149" transform="translate(262.705,-113.886)">
			<title>Sheet.132</title>
			<desc>No</desc>
			<path d="M14.17 433.28 L0 433.28 L0 440.37 L14.17 440.37 L14.17 433.28" class="st1"/>
			<text x="0" y="439.23" class="st2">No</text>		</g>
		<g id="shape133-153" transform="translate(64.2795,-220.185)">
			<title>Sheet.133</title>
			<desc>No</desc>
			<path d="M14.17 433.28 L0 433.28 L0 440.37 L14.17 440.37 L14.17 433.28" class="st1"/>
			<text x="0" y="439.23" class="st2">No</text>		</g>
	</g>
</svg>
