<?xml version="1.0" encoding="UTF-8" standalone="no"?>
<!DOCTYPE svg PUBLIC "-//W3C//DTD SVG 1.1//EN" "http://www.w3.org/Graphics/SVG/1.1/DTD/svg11.dtd">
<!-- Generated by Microsoft Visio, SVG Export 2020-ip-gst-issues-3-figure-3-v2.svg Page-1 -->
<svg xmlns="http://www.w3.org/2000/svg" xmlns:xlink="http://www.w3.org/1999/xlink" xmlns:ev="http://www.w3.org/2001/xml-events"
		width="5.98552in" height="4.6986in" viewBox="0 0 430.957 338.299" xml:space="preserve" color-interpolation-filters="sRGB"
		class="st8">
	<style type="text/css">
	<![CDATA[
		.st1 {fill:none;marker-start:url(#mrkr2-5);stroke:#000000;stroke-width:1}
		.st2 {fill:#000000;fill-opacity:1;stroke:#000000;stroke-opacity:1;stroke-width:0.28409090909091}
		.st3 {fill:#000000;font-family:Verdana;font-size:0.833336em}
		.st4 {font-size:1em}
		.st5 {marker-end:url(#mrkr4-29);stroke:#000000;stroke-linecap:round;stroke-linejoin:round;stroke-width:1}
		.st6 {fill:#000000;font-family:Verdana;font-size:0.666664em}
		.st7 {fill:none;stroke:none;stroke-width:0.25}
		.st8 {fill:none;fill-rule:evenodd;font-size:12px;overflow:visible;stroke-linecap:square;stroke-miterlimit:3}
	]]>
	</style>

	<defs id="Markers">
		<g id="lend2">
			<path d="M 1 1 L 0 0 L 1 -1 L 1 1 " style="stroke:none"/>
		</g>
		<marker id="mrkr2-5" class="st2" refX="3.52" orient="auto" markerUnits="strokeWidth" overflow="visible">
			<use xlink:href="#lend2" transform="scale(3.52) "/>
		</marker>
		<g id="lend4">
			<path d="M 2 1 L 0 0 L 2 -1 L 2 1 " style="stroke:none"/>
		</g>
		<marker id="mrkr4-29" class="st2" refX="-7.04" orient="auto" markerUnits="strokeWidth" overflow="visible">
			<use xlink:href="#lend4" transform="scale(-3.52,-3.52) "/>
		</marker>
	</defs>
	<g>
		<title>Page-1</title>
		<g id="group1005-1" transform="translate(4.97803,-0.25)">
			<title>Sheet.1005</title>
			<g id="shape18-2" transform="translate(3.19744E-14,-269.291)">
				<title>Process</title>
				<desc>General insurer</desc>
				<rect x="0" y="274.519" width="106.299" height="63.7795" class="st1"/>
				<text x="14.33" y="309.41" class="st3">General insurer</text>			</g>
			<g id="shape19-7" transform="translate(7.99361E-15,-81.4961)">
				<title>Process.12</title>
				<desc>Insured business</desc>
				<rect x="0" y="274.519" width="106.299" height="63.7795" class="st1"/>
				<text x="10.52" y="309.41" class="st3">Insured business</text>			</g>
			<g id="shape21-11" transform="translate(221.811,-269.291)">
				<title>Process.14</title>
				<desc>Inland Revenue</desc>
				<rect x="0" y="274.519" width="106.299" height="63.7795" class="st1"/>
				<text x="13.77" y="309.41" class="st3">Inland Revenue</text>			</g>
			<g id="shape22-15" transform="translate(221.811,-141.732)">
				<title>Process.7</title>
				<desc>Third-party business</desc>
				<rect x="0" y="274.519" width="106.299" height="63.7795" class="st1"/>
				<text x="24.83" y="303.41" class="st3">Third-party <tspan x="31.54" dy="1.2em" class="st4">business</tspan></text>			</g>
			<g id="shape23-20" transform="translate(221.811,-14.1732)">
				<title>Process.9</title>
				<desc>Repair businses</desc>
				<rect x="0" y="274.519" width="106.299" height="63.7795" class="st1"/>
				<text x="13.7" y="309.41" class="st3">Repair businses</text>			</g>
			<g id="shape25-24" transform="translate(221.811,-308.268)">
				<title>Dynamic connector.11</title>
				<desc>$15,000 input tax</desc>
				<path d="M0 345.39 L-108.47 345.39" class="st5"/>
				<text x="-73.41" y="325.27" class="st6">$15,000  <tspan x="-74.67" dy="1.2em" class="st4">input tax</tspan></text>			</g>
			<g id="shape26-32" transform="translate(304.724,-269.291)">
				<title>Dynamic connector.12</title>
				<desc>$15,000 input tax</desc>
				<path d="M-7.09 338.3 L-7.09 395.04" class="st5"/>
				<text x="10.22" y="369.21" class="st6">$15,000  <tspan x="8.95" dy="1.2em" class="st4">input tax</tspan></text>			</g>
			<g id="shape27-39" transform="translate(267.874,-141.732)">
				<title>Dynamic connector.13</title>
				<desc>$115,000 cost of repairs</desc>
				<path d="M7.09 338.3 L7.09 395.04" class="st5"/>
				<text x="23.97" y="364.25" class="st6">$115,000  <tspan x="14.54" dy="1.2em" class="st4">cost of repairs</tspan></text>			</g>
			<g id="shape28-46" transform="translate(321.024,-46.063)">
				<title>Dynamic connector.14</title>
				<desc>$15,000 output tax</desc>
				<path d="M7.09 338.3 L51.47 338.3 L51.47 83.18 L14.13 83.18" class="st5"/>
				<text x="61.95" y="208.34" class="st6">$15,000  <tspan x="57.77" dy="1.2em" class="st4">output tax</tspan></text>			</g>
			<g id="shape41-53" transform="translate(53.1496,-269.291)">
				<title>Dynamic connector</title>
				<desc>$115,000 Insurance pay-out</desc>
				<path d="M0 338.3 L0 433.97 L161.62 433.97" class="st5"/>
				<text x="32.48" y="403.22" class="st6">$115,000 <tspan x="14.78" dy="1.2em" class="st4">Insurance pay</tspan>-out</text>			</g>
			<g id="shape47-60" transform="translate(260.504,-205.512)">
				<title>Dynamic connector.47</title>
				<desc>$15,000 output tax</desc>
				<path d="M-7.09 338.3 L-7.09 281.56" class="st5"/>
				<text x="-58.95" y="305.43" class="st6">$15,000 <tspan x="-63.12" dy="1.2em" class="st4">output tax</tspan></text>			</g>
			<g id="shape1002-67" transform="translate(24.2716,2.27374E-13)">
				<title>Sheet.1002</title>
				<desc>Net GST collected = NIL</desc>
				<rect x="0" y="281.606" width="170.079" height="56.6929" class="st7"/>
				<text x="4" y="312.95" class="st3">Net GST collected = NIL</text>			</g>
		</g>
	</g>
</svg>
