<?xml version="1.0" encoding="UTF-8" standalone="no"?>
<!DOCTYPE svg PUBLIC "-//W3C//DTD SVG 1.1//EN" "http://www.w3.org/Graphics/SVG/1.1/DTD/svg11.dtd">
<!-- Generated by Microsoft Visio, SVG Export example-2.svg Page-1 -->
<svg xmlns="http://www.w3.org/2000/svg" xmlns:xlink="http://www.w3.org/1999/xlink" xmlns:ev="http://www.w3.org/2001/xml-events"
		xmlns:v="http://schemas.microsoft.com/visio/2003/SVGExtensions/" width="11.3124in" height="7.48719in"
		viewBox="0 0 814.49 539.078" xml:space="preserve" color-interpolation-filters="sRGB" class="st11">
	<v:documentProperties v:langID="5129" v:metric="true" v:viewMarkup="false"/>

	<style type="text/css">
	<![CDATA[
		.st1 {fill:#ffffff;stroke:#000000;stroke-linecap:round;stroke-linejoin:round;stroke-width:0.24}
		.st2 {fill:#000000;font-family:Verdana;font-size:0.833336em}
		.st3 {stroke:#000000;stroke-linecap:round;stroke-linejoin:round;stroke-width:0.75}
		.st4 {fill:#002060;font-family:Verdana;font-size:0.833336em}
		.st5 {font-size:1em;text-decoration:underline}
		.st6 {fill:#000000;font-size:1em}
		.st7 {fill:none;stroke:none;stroke-linecap:round;stroke-linejoin:round;stroke-width:0.75}
		.st8 {fill:#002060;font-family:Verdana;font-size:1.00001em}
		.st9 {baseline-shift:32.4941%;font-size:0.649882em}
		.st10 {font-size:1em}
		.st11 {fill:none;fill-rule:evenodd;font-size:12px;overflow:visible;stroke-linecap:square;stroke-miterlimit:3}
	]]>
	</style>

	<g v:mID="0" v:index="1" v:groupContext="foregroundPage">
		<title>Page-1</title>
		<v:pageProperties v:drawingScale="0.0393701" v:pageScale="0.0393701" v:drawingUnits="24" v:shadowOffsetX="8.50394"
				v:shadowOffsetY="-8.50394"/>
		<v:layer v:name="Flowchart" v:index="0"/>
		<v:layer v:name="Connector" v:index="1"/>
		<g id="shape1-1" v:mID="1" v:groupContext="shape" v:layerMember="0" transform="translate(6.49606,-467.837)">
			<title>Process</title>
			<desc>CRS_OECD</desc>
			<v:custProps>
				<v:cp v:nameU="Cost" v:lbl="Cost" v:prompt="" v:type="7" v:format="@" v:sortKey="" v:invis="false" v:ask="false"
						v:langID="1033" v:cal="0"/>
				<v:cp v:nameU="ProcessNumber" v:lbl="Process Number" v:prompt="" v:type="2" v:format="" v:sortKey=""
						v:invis="false" v:ask="false" v:langID="1033" v:cal="0"/>
				<v:cp v:nameU="Owner" v:lbl="Owner" v:prompt="" v:type="0" v:format="" v:sortKey="" v:invis="false" v:ask="false"
						v:langID="1033" v:cal="0"/>
				<v:cp v:nameU="Function" v:lbl="Function" v:prompt="" v:type="0" v:format="" v:sortKey="" v:invis="false"
						v:ask="false" v:langID="1033" v:cal="0" v:val="VT4()"/>
				<v:cp v:nameU="StartDate" v:lbl="Start Date" v:prompt="" v:type="5" v:format="" v:sortKey="" v:invis="false"
						v:ask="false" v:langID="1033" v:cal="0"/>
				<v:cp v:nameU="EndDate" v:lbl="End Date" v:prompt="" v:type="5" v:format="" v:sortKey="" v:invis="false"
						v:ask="false" v:langID="1033" v:cal="0"/>
				<v:cp v:nameU="Status" v:lbl="Status" v:prompt="" v:type="4"
						v:format=";Not Started;In Progress;Completed;Deferred;Waiting on Input" v:sortKey="" v:invis="false"
						v:ask="false" v:langID="1033" v:cal="0" v:val="VT4()"/>
			</v:custProps>
			<v:userDefs>
				<v:ud v:nameU="visVersion" v:prompt="" v:val="VT0(15):26"/>
				<v:ud v:nameU="DefaultWidth" v:prompt="" v:val="VT0(0.98425196850394):24"/>
				<v:ud v:nameU="DefaultHeight" v:prompt="" v:val="VT0(0.59055118110236):24"/>
				<v:ud v:nameU="ResizeTxtHeight" v:prompt="" v:val="VT0(0.59055118110236):24"/>
			</v:userDefs>
			<v:textBlock v:margins="rect(2,2,2,2)" v:tabSpace="42.5197"/>
			<v:textRect cx="49.6063" cy="524.904" width="99.22" height="28.3465"/>
			<rect x="0" y="510.731" width="99.2126" height="28.3465" rx="5.66929" ry="5.66929" class="st1"/>
			<text x="21.6" y="527.9" class="st2" v:langID="5129"><v:paragraph v:horizAlign="1"/><v:tabList/>CRS_OECD</text>		</g>
		<g id="shape2-4" v:mID="2" v:groupContext="shape" v:layerMember="0" transform="translate(20.6693,-326.104)">
			<title>Process.13</title>
			<desc>CrsBody</desc>
			<v:custProps>
				<v:cp v:nameU="Cost" v:lbl="Cost" v:prompt="" v:type="7" v:format="@" v:sortKey="" v:invis="false" v:ask="false"
						v:langID="1033" v:cal="0"/>
				<v:cp v:nameU="ProcessNumber" v:lbl="Process Number" v:prompt="" v:type="2" v:format="" v:sortKey=""
						v:invis="false" v:ask="false" v:langID="1033" v:cal="0"/>
				<v:cp v:nameU="Owner" v:lbl="Owner" v:prompt="" v:type="0" v:format="" v:sortKey="" v:invis="false" v:ask="false"
						v:langID="1033" v:cal="0"/>
				<v:cp v:nameU="Function" v:lbl="Function" v:prompt="" v:type="0" v:format="" v:sortKey="" v:invis="false"
						v:ask="false" v:langID="1033" v:cal="0" v:val="VT4()"/>
				<v:cp v:nameU="StartDate" v:lbl="Start Date" v:prompt="" v:type="5" v:format="" v:sortKey="" v:invis="false"
						v:ask="false" v:langID="1033" v:cal="0"/>
				<v:cp v:nameU="EndDate" v:lbl="End Date" v:prompt="" v:type="5" v:format="" v:sortKey="" v:invis="false"
						v:ask="false" v:langID="1033" v:cal="0"/>
				<v:cp v:nameU="Status" v:lbl="Status" v:prompt="" v:type="4"
						v:format=";Not Started;In Progress;Completed;Deferred;Waiting on Input" v:sortKey="" v:invis="false"
						v:ask="false" v:langID="1033" v:cal="0" v:val="VT4()"/>
			</v:custProps>
			<v:userDefs>
				<v:ud v:nameU="visVersion" v:prompt="" v:val="VT0(15):26"/>
				<v:ud v:nameU="DefaultWidth" v:prompt="" v:val="VT0(0.98425196850394):24"/>
				<v:ud v:nameU="DefaultHeight" v:prompt="" v:val="VT0(0.59055118110236):24"/>
				<v:ud v:nameU="ResizeTxtHeight" v:prompt="" v:val="VT0(0.59055118110236):24"/>
			</v:userDefs>
			<v:textBlock v:margins="rect(2,2,2,2)" v:tabSpace="42.5197"/>
			<v:textRect cx="49.6063" cy="524.904" width="99.22" height="28.3465"/>
			<rect x="0" y="510.731" width="99.2126" height="28.3465" rx="5.66929" ry="5.66929" class="st1"/>
			<text x="28.84" y="527.9" class="st2" v:langID="5129"><v:paragraph v:horizAlign="1"/><v:tabList/>CrsBody</text>		</g>
		<g id="shape3-7" v:mID="3" v:groupContext="shape" v:layerMember="1" transform="translate(10.748,-467.837)">
			<title>Dynamic connector.14</title>
			<path d="M4.25 539.08 L4.25 663.8 A2.83465 2.83465 -180 0 0 7.09 666.64 L9.92 666.64" class="st3"/>
		</g>
		<g id="shape4-10" v:mID="4" v:groupContext="shape" v:layerMember="0" transform="translate(34.8425,-283.585)">
			<title>Process.4</title>
			<desc>ReportingFI</desc>
			<v:custProps>
				<v:cp v:nameU="Cost" v:lbl="Cost" v:prompt="" v:type="7" v:format="@" v:sortKey="" v:invis="false" v:ask="false"
						v:langID="1033" v:cal="0"/>
				<v:cp v:nameU="ProcessNumber" v:lbl="Process Number" v:prompt="" v:type="2" v:format="" v:sortKey=""
						v:invis="false" v:ask="false" v:langID="1033" v:cal="0"/>
				<v:cp v:nameU="Owner" v:lbl="Owner" v:prompt="" v:type="0" v:format="" v:sortKey="" v:invis="false" v:ask="false"
						v:langID="1033" v:cal="0"/>
				<v:cp v:nameU="Function" v:lbl="Function" v:prompt="" v:type="0" v:format="" v:sortKey="" v:invis="false"
						v:ask="false" v:langID="1033" v:cal="0" v:val="VT4()"/>
				<v:cp v:nameU="StartDate" v:lbl="Start Date" v:prompt="" v:type="5" v:format="" v:sortKey="" v:invis="false"
						v:ask="false" v:langID="1033" v:cal="0"/>
				<v:cp v:nameU="EndDate" v:lbl="End Date" v:prompt="" v:type="5" v:format="" v:sortKey="" v:invis="false"
						v:ask="false" v:langID="1033" v:cal="0"/>
				<v:cp v:nameU="Status" v:lbl="Status" v:prompt="" v:type="4"
						v:format=";Not Started;In Progress;Completed;Deferred;Waiting on Input" v:sortKey="" v:invis="false"
						v:ask="false" v:langID="1033" v:cal="0" v:val="VT4()"/>
			</v:custProps>
			<v:userDefs>
				<v:ud v:nameU="visVersion" v:prompt="" v:val="VT0(15):26"/>
				<v:ud v:nameU="DefaultWidth" v:prompt="" v:val="VT0(0.98425196850394):24"/>
				<v:ud v:nameU="DefaultHeight" v:prompt="" v:val="VT0(0.59055118110236):24"/>
				<v:ud v:nameU="ResizeTxtHeight" v:prompt="" v:val="VT0(0.59055118110236):24"/>
			</v:userDefs>
			<v:textBlock v:margins="rect(2,2,2,2)" v:tabSpace="42.5197"/>
			<v:textRect cx="49.6063" cy="524.904" width="99.22" height="28.3465"/>
			<rect x="0" y="510.731" width="99.2126" height="28.3465" rx="5.66929" ry="5.66929" class="st1"/>
			<text x="20.27" y="527.9" class="st2" v:langID="5129"><v:paragraph v:horizAlign="1"/><v:tabList/>ReportingFI</text>		</g>
		<g id="shape5-13" v:mID="5" v:groupContext="shape" v:layerMember="1" transform="translate(23.8769,-326.21)">
			<title>Dynamic connector.5</title>
			<path d="M4.25 539.08 L4.25 564.59 A2.83465 2.83465 -180 0 0 7.09 567.42 L9.92 567.42" class="st3"/>
		</g>
		<g id="shape6-16" v:mID="6" v:groupContext="shape" v:layerMember="0" transform="translate(49.0157,-184.372)">
			<title>Process.6</title>
			<desc>DocSpec DocTypeIndic: OECD1 DocRefID: ABC0001 CorrDocRefID: C...</desc>
			<v:custProps>
				<v:cp v:nameU="Cost" v:lbl="Cost" v:prompt="" v:type="7" v:format="@" v:sortKey="" v:invis="false" v:ask="false"
						v:langID="1033" v:cal="0"/>
				<v:cp v:nameU="ProcessNumber" v:lbl="Process Number" v:prompt="" v:type="2" v:format="" v:sortKey=""
						v:invis="false" v:ask="false" v:langID="1033" v:cal="0"/>
				<v:cp v:nameU="Owner" v:lbl="Owner" v:prompt="" v:type="0" v:format="" v:sortKey="" v:invis="false" v:ask="false"
						v:langID="1033" v:cal="0"/>
				<v:cp v:nameU="Function" v:lbl="Function" v:prompt="" v:type="0" v:format="" v:sortKey="" v:invis="false"
						v:ask="false" v:langID="1033" v:cal="0" v:val="VT4()"/>
				<v:cp v:nameU="StartDate" v:lbl="Start Date" v:prompt="" v:type="5" v:format="" v:sortKey="" v:invis="false"
						v:ask="false" v:langID="1033" v:cal="0"/>
				<v:cp v:nameU="EndDate" v:lbl="End Date" v:prompt="" v:type="5" v:format="" v:sortKey="" v:invis="false"
						v:ask="false" v:langID="1033" v:cal="0"/>
				<v:cp v:nameU="Status" v:lbl="Status" v:prompt="" v:type="4"
						v:format=";Not Started;In Progress;Completed;Deferred;Waiting on Input" v:sortKey="" v:invis="false"
						v:ask="false" v:langID="1033" v:cal="0" v:val="VT4()"/>
			</v:custProps>
			<v:userDefs>
				<v:ud v:nameU="visVersion" v:prompt="" v:val="VT0(15):26"/>
				<v:ud v:nameU="DefaultWidth" v:prompt="" v:val="VT0(0.98425196850394):24"/>
				<v:ud v:nameU="DefaultHeight" v:prompt="" v:val="VT0(0.59055118110236):24"/>
				<v:ud v:nameU="ResizeTxtHeight" v:prompt="" v:val="VT0(0.59055118110236):24"/>
				<v:ud v:nameU="ResizeTxtHeight" v:prompt="" v:val="VT0(0.90551181102362):24"/>
			</v:userDefs>
			<v:textBlock v:margins="rect(2,2,2,2)" v:tabSpace="42.5197"/>
			<v:textRect cx="92.126" cy="496.558" width="184.26" height="85.0394"/>
			<rect x="0" y="454.038" width="184.252" height="85.0394" rx="5.66929" ry="5.66929" class="st1"/>
			<text x="9.03" y="475.56" class="st4" v:langID="5129"><v:paragraph/><v:tabList/><tspan class="st5">DocSpec</tspan><tspan
						class="st6">  </tspan><tspan x="2" dy="1.2em" class="st6">  </tspan><tspan class="st6">DocTypeIndic</tspan><tspan
						class="st6">:<v:tabChar/></tspan><tspan dx="0.549em" class="st6">         </tspan><tspan class="st6">OECD</tspan><tspan
						class="st6">1<v:newlineChar/></tspan><tspan x="2" dy="1.2em" class="st6">  </tspan><tspan class="st6">DocRefID</tspan><tspan
						class="st6">:<v:tabChar/></tspan><tspan dx="2.614em" class="st6">         </tspan><tspan class="st6">ABC</tspan><tspan
						class="st6">0001<v:newlineChar/></tspan><tspan x="2" dy="1.2em" class="st6">  </tspan><tspan class="st6">CorrDocRefID</tspan><tspan
						class="st6">:<v:space/></tspan><tspan dx="0.456em" class="st6">         </tspan><tspan x="2" dy="1.2em"
						class="st6">  </tspan><tspan class="st6">CorrMessageRefID</tspan><tspan class="st6">:     </tspan>     </text>		</g>
		<g id="shape7-40" v:mID="7" v:groupContext="shape" v:layerMember="1" transform="translate(38.1993,-283.05)">
			<title>Dynamic connector.7</title>
			<path d="M3.36 539.08 L3.36 591.51 A3.7298 3.7298 -180 0 0 7.09 595.24 L10.82 595.24" class="st3"/>
		</g>
		<g id="shape8-43" v:mID="8" v:groupContext="shape" v:layerMember="0" transform="translate(34.8425,-141.852)">
			<title>Process.8</title>
			<desc>ReportingGroup</desc>
			<v:custProps>
				<v:cp v:nameU="Cost" v:lbl="Cost" v:prompt="" v:type="7" v:format="@" v:sortKey="" v:invis="false" v:ask="false"
						v:langID="1033" v:cal="0"/>
				<v:cp v:nameU="ProcessNumber" v:lbl="Process Number" v:prompt="" v:type="2" v:format="" v:sortKey=""
						v:invis="false" v:ask="false" v:langID="1033" v:cal="0"/>
				<v:cp v:nameU="Owner" v:lbl="Owner" v:prompt="" v:type="0" v:format="" v:sortKey="" v:invis="false" v:ask="false"
						v:langID="1033" v:cal="0"/>
				<v:cp v:nameU="Function" v:lbl="Function" v:prompt="" v:type="0" v:format="" v:sortKey="" v:invis="false"
						v:ask="false" v:langID="1033" v:cal="0" v:val="VT4()"/>
				<v:cp v:nameU="StartDate" v:lbl="Start Date" v:prompt="" v:type="5" v:format="" v:sortKey="" v:invis="false"
						v:ask="false" v:langID="1033" v:cal="0"/>
				<v:cp v:nameU="EndDate" v:lbl="End Date" v:prompt="" v:type="5" v:format="" v:sortKey="" v:invis="false"
						v:ask="false" v:langID="1033" v:cal="0"/>
				<v:cp v:nameU="Status" v:lbl="Status" v:prompt="" v:type="4"
						v:format=";Not Started;In Progress;Completed;Deferred;Waiting on Input" v:sortKey="" v:invis="false"
						v:ask="false" v:langID="1033" v:cal="0" v:val="VT4()"/>
			</v:custProps>
			<v:userDefs>
				<v:ud v:nameU="visVersion" v:prompt="" v:val="VT0(15):26"/>
				<v:ud v:nameU="DefaultWidth" v:prompt="" v:val="VT0(0.98425196850394):24"/>
				<v:ud v:nameU="DefaultHeight" v:prompt="" v:val="VT0(0.59055118110236):24"/>
				<v:ud v:nameU="ResizeTxtHeight" v:prompt="" v:val="VT0(0.59055118110236):24"/>
			</v:userDefs>
			<v:textBlock v:margins="rect(2,2,2,2)" v:tabSpace="42.5197"/>
			<v:textRect cx="49.6063" cy="524.904" width="99.22" height="28.3465"/>
			<rect x="0" y="510.731" width="99.2126" height="28.3465" rx="5.66929" ry="5.66929" class="st1"/>
			<text x="9.92" y="527.9" class="st2" v:langID="5129"><v:paragraph v:horizAlign="1"/><v:tabList/>ReportingGroup</text>		</g>
		<g id="shape9-46" v:mID="9" v:groupContext="shape" v:layerMember="1" transform="translate(24.3991,-326.21)">
			<title>Dynamic connector.22</title>
			<path d="M3.73 539.08 L3.73 705.91 A3.35682 3.35682 -180 0 0 7.09 709.26 L10.44 709.26" class="st3"/>
		</g>
		<g id="shape10-49" v:mID="10" v:groupContext="shape" v:layerMember="0" transform="translate(49.0157,-99.3326)">
			<title>Process.23</title>
			<desc>AccountReport</desc>
			<v:custProps>
				<v:cp v:nameU="Cost" v:lbl="Cost" v:prompt="" v:type="7" v:format="@" v:sortKey="" v:invis="false" v:ask="false"
						v:langID="1033" v:cal="0"/>
				<v:cp v:nameU="ProcessNumber" v:lbl="Process Number" v:prompt="" v:type="2" v:format="" v:sortKey=""
						v:invis="false" v:ask="false" v:langID="1033" v:cal="0"/>
				<v:cp v:nameU="Owner" v:lbl="Owner" v:prompt="" v:type="0" v:format="" v:sortKey="" v:invis="false" v:ask="false"
						v:langID="1033" v:cal="0"/>
				<v:cp v:nameU="Function" v:lbl="Function" v:prompt="" v:type="0" v:format="" v:sortKey="" v:invis="false"
						v:ask="false" v:langID="1033" v:cal="0" v:val="VT4()"/>
				<v:cp v:nameU="StartDate" v:lbl="Start Date" v:prompt="" v:type="5" v:format="" v:sortKey="" v:invis="false"
						v:ask="false" v:langID="1033" v:cal="0"/>
				<v:cp v:nameU="EndDate" v:lbl="End Date" v:prompt="" v:type="5" v:format="" v:sortKey="" v:invis="false"
						v:ask="false" v:langID="1033" v:cal="0"/>
				<v:cp v:nameU="Status" v:lbl="Status" v:prompt="" v:type="4"
						v:format=";Not Started;In Progress;Completed;Deferred;Waiting on Input" v:sortKey="" v:invis="false"
						v:ask="false" v:langID="1033" v:cal="0" v:val="VT4()"/>
			</v:custProps>
			<v:userDefs>
				<v:ud v:nameU="visVersion" v:prompt="" v:val="VT0(15):26"/>
				<v:ud v:nameU="DefaultWidth" v:prompt="" v:val="VT0(0.98425196850394):24"/>
				<v:ud v:nameU="DefaultHeight" v:prompt="" v:val="VT0(0.59055118110236):24"/>
				<v:ud v:nameU="ResizeTxtHeight" v:prompt="" v:val="VT0(0.59055118110236):24"/>
			</v:userDefs>
			<v:textBlock v:margins="rect(2,2,2,2)" v:tabSpace="42.5197"/>
			<v:textRect cx="49.6063" cy="524.904" width="99.22" height="28.3465"/>
			<rect x="0" y="510.731" width="99.2126" height="28.3465" rx="5.66929" ry="5.66929" class="st1"/>
			<text x="12.94" y="527.9" class="st2" v:langID="5129"><v:paragraph v:horizAlign="1"/><v:tabList/>AccountReport</text>		</g>
		<g id="shape11-52" v:mID="11" v:groupContext="shape" v:layerMember="1" transform="translate(39.0945,-141.852)">
			<title>Dynamic connector.24</title>
			<path d="M4.25 539.08 L4.25 564.59 A2.83465 2.83465 -180 0 0 7.09 567.42 L9.92 567.42" class="st3"/>
		</g>
		<g id="shape12-55" v:mID="12" v:groupContext="shape" v:layerMember="0" transform="translate(63.189,-0.12)">
			<title>Process.25</title>
			<desc>DocSpec DocTypeIndic: OECD1 DocRefID: ABC0002 CorrDocRefID: C...</desc>
			<v:custProps>
				<v:cp v:nameU="Cost" v:lbl="Cost" v:prompt="" v:type="7" v:format="@" v:sortKey="" v:invis="false" v:ask="false"
						v:langID="1033" v:cal="0"/>
				<v:cp v:nameU="ProcessNumber" v:lbl="Process Number" v:prompt="" v:type="2" v:format="" v:sortKey=""
						v:invis="false" v:ask="false" v:langID="1033" v:cal="0"/>
				<v:cp v:nameU="Owner" v:lbl="Owner" v:prompt="" v:type="0" v:format="" v:sortKey="" v:invis="false" v:ask="false"
						v:langID="1033" v:cal="0"/>
				<v:cp v:nameU="Function" v:lbl="Function" v:prompt="" v:type="0" v:format="" v:sortKey="" v:invis="false"
						v:ask="false" v:langID="1033" v:cal="0" v:val="VT4()"/>
				<v:cp v:nameU="StartDate" v:lbl="Start Date" v:prompt="" v:type="5" v:format="" v:sortKey="" v:invis="false"
						v:ask="false" v:langID="1033" v:cal="0"/>
				<v:cp v:nameU="EndDate" v:lbl="End Date" v:prompt="" v:type="5" v:format="" v:sortKey="" v:invis="false"
						v:ask="false" v:langID="1033" v:cal="0"/>
				<v:cp v:nameU="Status" v:lbl="Status" v:prompt="" v:type="4"
						v:format=";Not Started;In Progress;Completed;Deferred;Waiting on Input" v:sortKey="" v:invis="false"
						v:ask="false" v:langID="1033" v:cal="0" v:val="VT4()"/>
			</v:custProps>
			<v:userDefs>
				<v:ud v:nameU="visVersion" v:prompt="" v:val="VT0(15):26"/>
				<v:ud v:nameU="DefaultWidth" v:prompt="" v:val="VT0(0.98425196850394):24"/>
				<v:ud v:nameU="DefaultHeight" v:prompt="" v:val="VT0(0.59055118110236):24"/>
				<v:ud v:nameU="ResizeTxtHeight" v:prompt="" v:val="VT0(0.59055118110236):24"/>
				<v:ud v:nameU="ResizeTxtHeight" v:prompt="" v:val="VT0(0.90551181102362):24"/>
			</v:userDefs>
			<v:textBlock v:margins="rect(2,2,2,2)" v:tabSpace="42.5197"/>
			<v:textRect cx="92.126" cy="496.558" width="184.26" height="85.0394"/>
			<rect x="0" y="454.038" width="184.252" height="85.0394" rx="5.66929" ry="5.66929" class="st1"/>
			<text x="9.03" y="475.56" class="st4" v:langID="5129"><v:paragraph/><v:tabList/><tspan class="st5">DocSpec</tspan><tspan
						class="st6">  </tspan><tspan x="2" dy="1.2em" class="st6">  </tspan><tspan class="st6">DocTypeIndic</tspan><tspan
						class="st6">:<v:tabChar/></tspan><tspan dx="0.549em" class="st6">         </tspan><tspan class="st6">OECD</tspan><tspan
						class="st6">1<v:newlineChar/></tspan><tspan x="2" dy="1.2em" class="st6">  </tspan><tspan class="st6">DocRefID</tspan><tspan
						class="st6">:<v:tabChar/></tspan><tspan dx="2.614em" class="st6">         </tspan><tspan class="st6">ABC</tspan><tspan
						class="st6">0002<v:newlineChar/></tspan><tspan x="2" dy="1.2em" class="st6">  </tspan><tspan class="st6">CorrDocRefID</tspan><tspan
						class="st6">:<v:space/></tspan><tspan dx="0.456em" class="st6">         </tspan><tspan x="2" dy="1.2em"
						class="st6">  </tspan><tspan class="st6">CorrMessageRefID</tspan><tspan class="st6">:     </tspan>     </text>		</g>
		<g id="shape13-79" v:mID="13" v:groupContext="shape" v:layerMember="1" transform="translate(52.3726,-99.3326)">
			<title>Dynamic connector.26</title>
			<path d="M3.36 539.08 L3.36 584.42 A3.7298 3.7298 -180 0 0 7.09 588.15 L10.82 588.15" class="st3"/>
		</g>
		<g id="shape14-82" v:mID="14" v:groupContext="shape" transform="translate(6.49606,-510.356)">
			<title>Sheet.14</title>
			<desc>ORIGINAL DISCLOSURE</desc>
			<v:textBlock v:margins="rect(4,4,4,4)" v:tabSpace="42.5197"/>
			<v:textRect cx="77.9528" cy="524.904" width="155.91" height="28.3465"/>
			<rect x="0" y="510.731" width="155.906" height="28.3465" class="st7"/>
			<text x="4" y="528.5" class="st8" v:langID="5129"><v:paragraph/><v:tabList/>ORIGINAL DISCLOSURE</text>		</g>
		<g id="shape15-85" v:mID="15" v:groupContext="shape" v:layerMember="0" transform="translate(20.6693,-368.624)">
			<title>Process.29</title>
			<desc>MessageSpec MessageRefID: ABCBank_Msg01 MessageTypeIndic: CRS...</desc>
			<v:custProps>
				<v:cp v:nameU="Cost" v:lbl="Cost" v:prompt="" v:type="7" v:format="@" v:sortKey="" v:invis="false" v:ask="false"
						v:langID="1033" v:cal="0"/>
				<v:cp v:nameU="ProcessNumber" v:lbl="Process Number" v:prompt="" v:type="2" v:format="" v:sortKey=""
						v:invis="false" v:ask="false" v:langID="1033" v:cal="0"/>
				<v:cp v:nameU="Owner" v:lbl="Owner" v:prompt="" v:type="0" v:format="" v:sortKey="" v:invis="false" v:ask="false"
						v:langID="1033" v:cal="0"/>
				<v:cp v:nameU="Function" v:lbl="Function" v:prompt="" v:type="0" v:format="" v:sortKey="" v:invis="false"
						v:ask="false" v:langID="1033" v:cal="0" v:val="VT4()"/>
				<v:cp v:nameU="StartDate" v:lbl="Start Date" v:prompt="" v:type="5" v:format="" v:sortKey="" v:invis="false"
						v:ask="false" v:langID="1033" v:cal="0"/>
				<v:cp v:nameU="EndDate" v:lbl="End Date" v:prompt="" v:type="5" v:format="" v:sortKey="" v:invis="false"
						v:ask="false" v:langID="1033" v:cal="0"/>
				<v:cp v:nameU="Status" v:lbl="Status" v:prompt="" v:type="4"
						v:format=";Not Started;In Progress;Completed;Deferred;Waiting on Input" v:sortKey="" v:invis="false"
						v:ask="false" v:langID="1033" v:cal="0" v:val="VT4()"/>
			</v:custProps>
			<v:userDefs>
				<v:ud v:nameU="visVersion" v:prompt="" v:val="VT0(15):26"/>
				<v:ud v:nameU="DefaultWidth" v:prompt="" v:val="VT0(0.98425196850394):24"/>
				<v:ud v:nameU="DefaultHeight" v:prompt="" v:val="VT0(0.59055118110236):24"/>
				<v:ud v:nameU="ResizeTxtHeight" v:prompt="" v:val="VT0(0.59055118110236):24"/>
				<v:ud v:nameU="ResizeTxtHeight" v:prompt="" v:val="VT0(0.74803149606299):24"/>
			</v:userDefs>
			<v:textBlock v:margins="rect(2,2,2,2)" v:tabSpace="42.5197"/>
			<v:textRect cx="113.386" cy="496.558" width="226.78" height="85.0394"/>
			<rect x="0" y="454.038" width="226.772" height="85.0394" rx="5.66929" ry="5.66929" class="st1"/>
			<text x="9.03" y="481.56" class="st4" v:langID="5129"><v:paragraph/><v:tabList/><tspan class="st5">MessageSpec</tspan><tspan
						class="st6">  </tspan><tspan x="2" dy="1.2em" class="st6">  </tspan><tspan class="st6">MessageRefID</tspan><tspan
						class="st6">:<v:tabChar/><v:tabChar/></tspan><tspan dx="4.465em" class="st6">ABCBank</tspan><tspan
						class="st6">_</tspan><tspan class="st6">Msg</tspan><tspan class="st6">01<v:newlineChar/></tspan><tspan
						x="2" dy="1.2em" class="st6">  </tspan><tspan class="st6">MessageTypeIndic</tspan><tspan class="st6">:<v:tabChar/></tspan><tspan
						dx="2.4em" class="st6">CRS</tspan><tspan class="st6">701<v:newlineChar/></tspan><tspan x="2" dy="1.2em"
						class="st6">  </tspan><tspan class="st6">CorrMessageRefID</tspan><tspan class="st6">:     </tspan>     </text>		</g>
		<g id="shape16-105" v:mID="16" v:groupContext="shape" v:layerMember="1" transform="translate(10.748,-467.837)">
			<title>Dynamic connector.30</title>
			<path d="M4.25 539.08 L4.25 592.94 A2.83465 2.83465 -180 0 0 7.09 595.77 L9.92 595.77" class="st3"/>
		</g>
		<g id="shape17-108" v:mID="17" v:groupContext="shape" v:layerMember="0" transform="translate(289.961,-467.837)">
			<title>Process.17</title>
			<desc>CRS_OECD</desc>
			<v:custProps>
				<v:cp v:nameU="Cost" v:lbl="Cost" v:prompt="" v:type="7" v:format="@" v:sortKey="" v:invis="false" v:ask="false"
						v:langID="1033" v:cal="0"/>
				<v:cp v:nameU="ProcessNumber" v:lbl="Process Number" v:prompt="" v:type="2" v:format="" v:sortKey=""
						v:invis="false" v:ask="false" v:langID="1033" v:cal="0"/>
				<v:cp v:nameU="Owner" v:lbl="Owner" v:prompt="" v:type="0" v:format="" v:sortKey="" v:invis="false" v:ask="false"
						v:langID="1033" v:cal="0"/>
				<v:cp v:nameU="Function" v:lbl="Function" v:prompt="" v:type="0" v:format="" v:sortKey="" v:invis="false"
						v:ask="false" v:langID="1033" v:cal="0" v:val="VT4()"/>
				<v:cp v:nameU="StartDate" v:lbl="Start Date" v:prompt="" v:type="5" v:format="" v:sortKey="" v:invis="false"
						v:ask="false" v:langID="1033" v:cal="0"/>
				<v:cp v:nameU="EndDate" v:lbl="End Date" v:prompt="" v:type="5" v:format="" v:sortKey="" v:invis="false"
						v:ask="false" v:langID="1033" v:cal="0"/>
				<v:cp v:nameU="Status" v:lbl="Status" v:prompt="" v:type="4"
						v:format=";Not Started;In Progress;Completed;Deferred;Waiting on Input" v:sortKey="" v:invis="false"
						v:ask="false" v:langID="1033" v:cal="0" v:val="VT4()"/>
			</v:custProps>
			<v:userDefs>
				<v:ud v:nameU="visVersion" v:prompt="" v:val="VT0(15):26"/>
				<v:ud v:nameU="DefaultWidth" v:prompt="" v:val="VT0(0.98425196850394):24"/>
				<v:ud v:nameU="DefaultHeight" v:prompt="" v:val="VT0(0.59055118110236):24"/>
				<v:ud v:nameU="ResizeTxtHeight" v:prompt="" v:val="VT0(0.59055118110236):24"/>
			</v:userDefs>
			<v:textBlock v:margins="rect(2,2,2,2)" v:tabSpace="42.5197"/>
			<v:textRect cx="49.6063" cy="524.904" width="99.22" height="28.3465"/>
			<rect x="0" y="510.731" width="99.2126" height="28.3465" rx="5.66929" ry="5.66929" class="st1"/>
			<text x="21.6" y="527.9" class="st2" v:langID="5129"><v:paragraph v:horizAlign="1"/><v:tabList/>CRS_OECD</text>		</g>
		<g id="shape18-111" v:mID="18" v:groupContext="shape" v:layerMember="0" transform="translate(304.134,-326.104)">
			<title>Process.32</title>
			<desc>CrsBody</desc>
			<v:custProps>
				<v:cp v:nameU="Cost" v:lbl="Cost" v:prompt="" v:type="7" v:format="@" v:sortKey="" v:invis="false" v:ask="false"
						v:langID="1033" v:cal="0"/>
				<v:cp v:nameU="ProcessNumber" v:lbl="Process Number" v:prompt="" v:type="2" v:format="" v:sortKey=""
						v:invis="false" v:ask="false" v:langID="1033" v:cal="0"/>
				<v:cp v:nameU="Owner" v:lbl="Owner" v:prompt="" v:type="0" v:format="" v:sortKey="" v:invis="false" v:ask="false"
						v:langID="1033" v:cal="0"/>
				<v:cp v:nameU="Function" v:lbl="Function" v:prompt="" v:type="0" v:format="" v:sortKey="" v:invis="false"
						v:ask="false" v:langID="1033" v:cal="0" v:val="VT4()"/>
				<v:cp v:nameU="StartDate" v:lbl="Start Date" v:prompt="" v:type="5" v:format="" v:sortKey="" v:invis="false"
						v:ask="false" v:langID="1033" v:cal="0"/>
				<v:cp v:nameU="EndDate" v:lbl="End Date" v:prompt="" v:type="5" v:format="" v:sortKey="" v:invis="false"
						v:ask="false" v:langID="1033" v:cal="0"/>
				<v:cp v:nameU="Status" v:lbl="Status" v:prompt="" v:type="4"
						v:format=";Not Started;In Progress;Completed;Deferred;Waiting on Input" v:sortKey="" v:invis="false"
						v:ask="false" v:langID="1033" v:cal="0" v:val="VT4()"/>
			</v:custProps>
			<v:userDefs>
				<v:ud v:nameU="visVersion" v:prompt="" v:val="VT0(15):26"/>
				<v:ud v:nameU="DefaultWidth" v:prompt="" v:val="VT0(0.98425196850394):24"/>
				<v:ud v:nameU="DefaultHeight" v:prompt="" v:val="VT0(0.59055118110236):24"/>
				<v:ud v:nameU="ResizeTxtHeight" v:prompt="" v:val="VT0(0.59055118110236):24"/>
			</v:userDefs>
			<v:textBlock v:margins="rect(2,2,2,2)" v:tabSpace="42.5197"/>
			<v:textRect cx="49.6063" cy="524.904" width="99.22" height="28.3465"/>
			<rect x="0" y="510.731" width="99.2126" height="28.3465" rx="5.66929" ry="5.66929" class="st1"/>
			<text x="28.84" y="527.9" class="st2" v:langID="5129"><v:paragraph v:horizAlign="1"/><v:tabList/>CrsBody</text>		</g>
		<g id="shape19-114" v:mID="19" v:groupContext="shape" v:layerMember="1" transform="translate(294.213,-467.837)">
			<title>Dynamic connector.33</title>
			<path d="M4.25 539.08 L4.25 663.8 A2.83465 2.83465 -180 0 0 7.09 666.64 L9.92 666.64" class="st3"/>
		</g>
		<g id="shape20-117" v:mID="20" v:groupContext="shape" v:layerMember="0" transform="translate(318.307,-283.585)">
			<title>Process.20</title>
			<desc>ReportingFI</desc>
			<v:custProps>
				<v:cp v:nameU="Cost" v:lbl="Cost" v:prompt="" v:type="7" v:format="@" v:sortKey="" v:invis="false" v:ask="false"
						v:langID="1033" v:cal="0"/>
				<v:cp v:nameU="ProcessNumber" v:lbl="Process Number" v:prompt="" v:type="2" v:format="" v:sortKey=""
						v:invis="false" v:ask="false" v:langID="1033" v:cal="0"/>
				<v:cp v:nameU="Owner" v:lbl="Owner" v:prompt="" v:type="0" v:format="" v:sortKey="" v:invis="false" v:ask="false"
						v:langID="1033" v:cal="0"/>
				<v:cp v:nameU="Function" v:lbl="Function" v:prompt="" v:type="0" v:format="" v:sortKey="" v:invis="false"
						v:ask="false" v:langID="1033" v:cal="0" v:val="VT4()"/>
				<v:cp v:nameU="StartDate" v:lbl="Start Date" v:prompt="" v:type="5" v:format="" v:sortKey="" v:invis="false"
						v:ask="false" v:langID="1033" v:cal="0"/>
				<v:cp v:nameU="EndDate" v:lbl="End Date" v:prompt="" v:type="5" v:format="" v:sortKey="" v:invis="false"
						v:ask="false" v:langID="1033" v:cal="0"/>
				<v:cp v:nameU="Status" v:lbl="Status" v:prompt="" v:type="4"
						v:format=";Not Started;In Progress;Completed;Deferred;Waiting on Input" v:sortKey="" v:invis="false"
						v:ask="false" v:langID="1033" v:cal="0" v:val="VT4()"/>
			</v:custProps>
			<v:userDefs>
				<v:ud v:nameU="visVersion" v:prompt="" v:val="VT0(15):26"/>
				<v:ud v:nameU="DefaultWidth" v:prompt="" v:val="VT0(0.98425196850394):24"/>
				<v:ud v:nameU="DefaultHeight" v:prompt="" v:val="VT0(0.59055118110236):24"/>
				<v:ud v:nameU="ResizeTxtHeight" v:prompt="" v:val="VT0(0.59055118110236):24"/>
			</v:userDefs>
			<v:textBlock v:margins="rect(2,2,2,2)" v:tabSpace="42.5197"/>
			<v:textRect cx="49.6063" cy="524.904" width="99.22" height="28.3465"/>
			<rect x="0" y="510.731" width="99.2126" height="28.3465" rx="5.66929" ry="5.66929" class="st1"/>
			<text x="20.27" y="527.9" class="st2" v:langID="5129"><v:paragraph v:horizAlign="1"/><v:tabList/>ReportingFI</text>		</g>
		<g id="shape21-120" v:mID="21" v:groupContext="shape" v:layerMember="1" transform="translate(307.341,-326.21)">
			<title>Dynamic connector.21</title>
			<path d="M4.25 539.08 L4.25 564.59 A2.83465 2.83465 -180 0 0 7.09 567.42 L9.92 567.42" class="st3"/>
		</g>
		<g id="shape22-123" v:mID="22" v:groupContext="shape" v:layerMember="0" transform="translate(332.48,-184.372)">
			<title>Process.22</title>
			<desc>DocSpec DocTypeIndic: OECD0 DocRefID: ABC0001 CorrDocRefID: C...</desc>
			<v:custProps>
				<v:cp v:nameU="Cost" v:lbl="Cost" v:prompt="" v:type="7" v:format="@" v:sortKey="" v:invis="false" v:ask="false"
						v:langID="1033" v:cal="0"/>
				<v:cp v:nameU="ProcessNumber" v:lbl="Process Number" v:prompt="" v:type="2" v:format="" v:sortKey=""
						v:invis="false" v:ask="false" v:langID="1033" v:cal="0"/>
				<v:cp v:nameU="Owner" v:lbl="Owner" v:prompt="" v:type="0" v:format="" v:sortKey="" v:invis="false" v:ask="false"
						v:langID="1033" v:cal="0"/>
				<v:cp v:nameU="Function" v:lbl="Function" v:prompt="" v:type="0" v:format="" v:sortKey="" v:invis="false"
						v:ask="false" v:langID="1033" v:cal="0" v:val="VT4()"/>
				<v:cp v:nameU="StartDate" v:lbl="Start Date" v:prompt="" v:type="5" v:format="" v:sortKey="" v:invis="false"
						v:ask="false" v:langID="1033" v:cal="0"/>
				<v:cp v:nameU="EndDate" v:lbl="End Date" v:prompt="" v:type="5" v:format="" v:sortKey="" v:invis="false"
						v:ask="false" v:langID="1033" v:cal="0"/>
				<v:cp v:nameU="Status" v:lbl="Status" v:prompt="" v:type="4"
						v:format=";Not Started;In Progress;Completed;Deferred;Waiting on Input" v:sortKey="" v:invis="false"
						v:ask="false" v:langID="1033" v:cal="0" v:val="VT4()"/>
			</v:custProps>
			<v:userDefs>
				<v:ud v:nameU="visVersion" v:prompt="" v:val="VT0(15):26"/>
				<v:ud v:nameU="DefaultWidth" v:prompt="" v:val="VT0(0.98425196850394):24"/>
				<v:ud v:nameU="DefaultHeight" v:prompt="" v:val="VT0(0.59055118110236):24"/>
				<v:ud v:nameU="ResizeTxtHeight" v:prompt="" v:val="VT0(0.59055118110236):24"/>
				<v:ud v:nameU="ResizeTxtHeight" v:prompt="" v:val="VT0(0.90551181102362):24"/>
			</v:userDefs>
			<v:textBlock v:margins="rect(2,2,2,2)" v:tabSpace="42.5197"/>
			<v:textRect cx="92.126" cy="496.558" width="184.26" height="85.0394"/>
			<rect x="0" y="454.038" width="184.252" height="85.0394" rx="5.66929" ry="5.66929" class="st1"/>
			<text x="9.03" y="475.56" class="st4" v:langID="5129"><v:paragraph/><v:tabList/><tspan class="st5">DocSpec</tspan><tspan
						class="st6">  </tspan><tspan x="2" dy="1.2em" class="st6">  </tspan><tspan class="st6">DocTypeIndic</tspan><tspan
						class="st6">:<v:tabChar/></tspan><tspan dx="0.549em" class="st6">         </tspan><tspan class="st6">OECD</tspan><tspan
						class="st6">0<v:newlineChar/></tspan><tspan x="2" dy="1.2em" class="st6">  </tspan><tspan class="st6">DocRefID</tspan><tspan
						class="st6">:<v:tabChar/></tspan><tspan dx="2.614em" class="st6">         </tspan><tspan class="st6">ABC</tspan><tspan
						class="st6">0001<v:newlineChar/></tspan><tspan x="2" dy="1.2em" class="st6">  </tspan><tspan class="st6">CorrDocRefID</tspan><tspan
						class="st6">:<v:space/></tspan><tspan dx="0.456em" class="st6">         </tspan><tspan x="2" dy="1.2em"
						class="st6">  </tspan><tspan class="st6">CorrMessageRefID</tspan><tspan class="st6">:     </tspan>     </text>		</g>
		<g id="shape23-147" v:mID="23" v:groupContext="shape" v:layerMember="1" transform="translate(321.664,-283.05)">
			<title>Dynamic connector.23</title>
			<path d="M3.36 539.08 L3.36 591.51 A3.7298 3.7298 -180 0 0 7.09 595.24 L10.82 595.24" class="st3"/>
		</g>
		<g id="shape24-150" v:mID="24" v:groupContext="shape" v:layerMember="0" transform="translate(318.307,-141.852)">
			<title>Process.24</title>
			<desc>ReportingGroup</desc>
			<v:custProps>
				<v:cp v:nameU="Cost" v:lbl="Cost" v:prompt="" v:type="7" v:format="@" v:sortKey="" v:invis="false" v:ask="false"
						v:langID="1033" v:cal="0"/>
				<v:cp v:nameU="ProcessNumber" v:lbl="Process Number" v:prompt="" v:type="2" v:format="" v:sortKey=""
						v:invis="false" v:ask="false" v:langID="1033" v:cal="0"/>
				<v:cp v:nameU="Owner" v:lbl="Owner" v:prompt="" v:type="0" v:format="" v:sortKey="" v:invis="false" v:ask="false"
						v:langID="1033" v:cal="0"/>
				<v:cp v:nameU="Function" v:lbl="Function" v:prompt="" v:type="0" v:format="" v:sortKey="" v:invis="false"
						v:ask="false" v:langID="1033" v:cal="0" v:val="VT4()"/>
				<v:cp v:nameU="StartDate" v:lbl="Start Date" v:prompt="" v:type="5" v:format="" v:sortKey="" v:invis="false"
						v:ask="false" v:langID="1033" v:cal="0"/>
				<v:cp v:nameU="EndDate" v:lbl="End Date" v:prompt="" v:type="5" v:format="" v:sortKey="" v:invis="false"
						v:ask="false" v:langID="1033" v:cal="0"/>
				<v:cp v:nameU="Status" v:lbl="Status" v:prompt="" v:type="4"
						v:format=";Not Started;In Progress;Completed;Deferred;Waiting on Input" v:sortKey="" v:invis="false"
						v:ask="false" v:langID="1033" v:cal="0" v:val="VT4()"/>
			</v:custProps>
			<v:userDefs>
				<v:ud v:nameU="visVersion" v:prompt="" v:val="VT0(15):26"/>
				<v:ud v:nameU="DefaultWidth" v:prompt="" v:val="VT0(0.98425196850394):24"/>
				<v:ud v:nameU="DefaultHeight" v:prompt="" v:val="VT0(0.59055118110236):24"/>
				<v:ud v:nameU="ResizeTxtHeight" v:prompt="" v:val="VT0(0.59055118110236):24"/>
			</v:userDefs>
			<v:textBlock v:margins="rect(2,2,2,2)" v:tabSpace="42.5197"/>
			<v:textRect cx="49.6063" cy="524.904" width="99.22" height="28.3465"/>
			<rect x="0" y="510.731" width="99.2126" height="28.3465" rx="5.66929" ry="5.66929" class="st1"/>
			<text x="9.92" y="527.9" class="st2" v:langID="5129"><v:paragraph v:horizAlign="1"/><v:tabList/>ReportingGroup</text>		</g>
		<g id="shape25-153" v:mID="25" v:groupContext="shape" v:layerMember="1" transform="translate(307.864,-326.21)">
			<title>Dynamic connector.25</title>
			<path d="M3.73 539.08 L3.73 705.91 A3.35682 3.35682 -180 0 0 7.09 709.26 L10.44 709.26" class="st3"/>
		</g>
		<g id="shape26-156" v:mID="26" v:groupContext="shape" v:layerMember="0" transform="translate(332.48,-99.3326)">
			<title>Process.26</title>
			<desc>AccountReport</desc>
			<v:custProps>
				<v:cp v:nameU="Cost" v:lbl="Cost" v:prompt="" v:type="7" v:format="@" v:sortKey="" v:invis="false" v:ask="false"
						v:langID="1033" v:cal="0"/>
				<v:cp v:nameU="ProcessNumber" v:lbl="Process Number" v:prompt="" v:type="2" v:format="" v:sortKey=""
						v:invis="false" v:ask="false" v:langID="1033" v:cal="0"/>
				<v:cp v:nameU="Owner" v:lbl="Owner" v:prompt="" v:type="0" v:format="" v:sortKey="" v:invis="false" v:ask="false"
						v:langID="1033" v:cal="0"/>
				<v:cp v:nameU="Function" v:lbl="Function" v:prompt="" v:type="0" v:format="" v:sortKey="" v:invis="false"
						v:ask="false" v:langID="1033" v:cal="0" v:val="VT4()"/>
				<v:cp v:nameU="StartDate" v:lbl="Start Date" v:prompt="" v:type="5" v:format="" v:sortKey="" v:invis="false"
						v:ask="false" v:langID="1033" v:cal="0"/>
				<v:cp v:nameU="EndDate" v:lbl="End Date" v:prompt="" v:type="5" v:format="" v:sortKey="" v:invis="false"
						v:ask="false" v:langID="1033" v:cal="0"/>
				<v:cp v:nameU="Status" v:lbl="Status" v:prompt="" v:type="4"
						v:format=";Not Started;In Progress;Completed;Deferred;Waiting on Input" v:sortKey="" v:invis="false"
						v:ask="false" v:langID="1033" v:cal="0" v:val="VT4()"/>
			</v:custProps>
			<v:userDefs>
				<v:ud v:nameU="visVersion" v:prompt="" v:val="VT0(15):26"/>
				<v:ud v:nameU="DefaultWidth" v:prompt="" v:val="VT0(0.98425196850394):24"/>
				<v:ud v:nameU="DefaultHeight" v:prompt="" v:val="VT0(0.59055118110236):24"/>
				<v:ud v:nameU="ResizeTxtHeight" v:prompt="" v:val="VT0(0.59055118110236):24"/>
			</v:userDefs>
			<v:textBlock v:margins="rect(2,2,2,2)" v:tabSpace="42.5197"/>
			<v:textRect cx="49.6063" cy="524.904" width="99.22" height="28.3465"/>
			<rect x="0" y="510.731" width="99.2126" height="28.3465" rx="5.66929" ry="5.66929" class="st1"/>
			<text x="12.94" y="527.9" class="st2" v:langID="5129"><v:paragraph v:horizAlign="1"/><v:tabList/>AccountReport</text>		</g>
		<g id="shape27-159" v:mID="27" v:groupContext="shape" v:layerMember="1" transform="translate(322.559,-141.852)">
			<title>Dynamic connector.27</title>
			<path d="M4.25 539.08 L4.25 564.59 A2.83465 2.83465 -180 0 0 7.09 567.42 L9.92 567.42" class="st3"/>
		</g>
		<g id="shape28-162" v:mID="28" v:groupContext="shape" v:layerMember="0" transform="translate(346.654,-0.12)">
			<title>Process.28</title>
			<desc>DocSpec DocTypeIndic: OECD2 DocRefID: DEF0003 CorrDocRefID: A...</desc>
			<v:custProps>
				<v:cp v:nameU="Cost" v:lbl="Cost" v:prompt="" v:type="7" v:format="@" v:sortKey="" v:invis="false" v:ask="false"
						v:langID="1033" v:cal="0"/>
				<v:cp v:nameU="ProcessNumber" v:lbl="Process Number" v:prompt="" v:type="2" v:format="" v:sortKey=""
						v:invis="false" v:ask="false" v:langID="1033" v:cal="0"/>
				<v:cp v:nameU="Owner" v:lbl="Owner" v:prompt="" v:type="0" v:format="" v:sortKey="" v:invis="false" v:ask="false"
						v:langID="1033" v:cal="0"/>
				<v:cp v:nameU="Function" v:lbl="Function" v:prompt="" v:type="0" v:format="" v:sortKey="" v:invis="false"
						v:ask="false" v:langID="1033" v:cal="0" v:val="VT4()"/>
				<v:cp v:nameU="StartDate" v:lbl="Start Date" v:prompt="" v:type="5" v:format="" v:sortKey="" v:invis="false"
						v:ask="false" v:langID="1033" v:cal="0"/>
				<v:cp v:nameU="EndDate" v:lbl="End Date" v:prompt="" v:type="5" v:format="" v:sortKey="" v:invis="false"
						v:ask="false" v:langID="1033" v:cal="0"/>
				<v:cp v:nameU="Status" v:lbl="Status" v:prompt="" v:type="4"
						v:format=";Not Started;In Progress;Completed;Deferred;Waiting on Input" v:sortKey="" v:invis="false"
						v:ask="false" v:langID="1033" v:cal="0" v:val="VT4()"/>
			</v:custProps>
			<v:userDefs>
				<v:ud v:nameU="visVersion" v:prompt="" v:val="VT0(15):26"/>
				<v:ud v:nameU="DefaultWidth" v:prompt="" v:val="VT0(0.98425196850394):24"/>
				<v:ud v:nameU="DefaultHeight" v:prompt="" v:val="VT0(0.59055118110236):24"/>
				<v:ud v:nameU="ResizeTxtHeight" v:prompt="" v:val="VT0(0.59055118110236):24"/>
				<v:ud v:nameU="ResizeTxtHeight" v:prompt="" v:val="VT0(0.90551181102362):24"/>
			</v:userDefs>
			<v:textBlock v:margins="rect(2,2,2,2)" v:tabSpace="42.5197"/>
			<v:textRect cx="92.126" cy="496.558" width="184.26" height="85.0394"/>
			<rect x="0" y="454.038" width="184.252" height="85.0394" rx="5.66929" ry="5.66929" class="st1"/>
			<text x="9.03" y="475.56" class="st4" v:langID="5129"><v:paragraph/><v:tabList/><tspan class="st5">DocSpec</tspan><tspan
						class="st6">  </tspan><tspan x="2" dy="1.2em" class="st6">  </tspan><tspan class="st6">DocTypeIndic</tspan><tspan
						class="st6">:<v:tabChar/></tspan><tspan dx="0.549em" class="st6">         </tspan><tspan class="st6">OECD</tspan><tspan
						class="st6">2<v:newlineChar/></tspan><tspan x="2" dy="1.2em" class="st6">  </tspan><tspan class="st6">DocRefID</tspan><tspan
						class="st6">:<v:tabChar/></tspan><tspan dx="2.614em" class="st6">         </tspan><tspan class="st6">DEF</tspan><tspan
						class="st6">0003<v:newlineChar/></tspan><tspan x="2" dy="1.2em" class="st6">  </tspan><tspan class="st6">CorrDocRefID</tspan><tspan
						class="st6">:<v:tabChar/></tspan><tspan dx="0.456em" class="st6">         </tspan><tspan class="st6">ABC</tspan><tspan
						class="st6">0002<v:newlineChar/></tspan><tspan x="2" dy="1.2em" class="st6">  </tspan><tspan class="st6">CorrMessageRefID</tspan><tspan
						class="st6">:     </tspan>     </text>		</g>
		<g id="shape29-188" v:mID="29" v:groupContext="shape" v:layerMember="1" transform="translate(335.837,-99.3326)">
			<title>Dynamic connector.29</title>
			<path d="M3.36 539.08 L3.36 584.42 A3.7298 3.7298 -180 0 0 7.09 588.15 L10.82 588.15" class="st3"/>
		</g>
		<g id="shape30-191" v:mID="30" v:groupContext="shape" transform="translate(289.961,-510.356)">
			<title>Sheet.30</title>
			<desc>1ST CORRECTION</desc>
			<v:textBlock v:margins="rect(4,4,4,4)" v:tabSpace="42.5197"/>
			<v:textRect cx="77.9528" cy="524.904" width="155.91" height="28.3465"/>
			<rect x="0" y="510.731" width="155.906" height="28.3465" class="st7"/>
			<text x="4" y="528.5" class="st8" v:langID="5129"><v:paragraph/><v:tabList/>1<tspan dy="-0.198em" class="st9"
						v:baseFontSize="12">ST</tspan><tspan dy="0.129em" class="st10"> </tspan>CORRECTION</text>		</g>
		<g id="shape31-196" v:mID="31" v:groupContext="shape" v:layerMember="0" transform="translate(304.134,-368.624)">
			<title>Process.45</title>
			<desc>MessageSpec MessageRefID: ABCBank_Msg02 MessageTypeIndic: CRS...</desc>
			<v:custProps>
				<v:cp v:nameU="Cost" v:lbl="Cost" v:prompt="" v:type="7" v:format="@" v:sortKey="" v:invis="false" v:ask="false"
						v:langID="1033" v:cal="0"/>
				<v:cp v:nameU="ProcessNumber" v:lbl="Process Number" v:prompt="" v:type="2" v:format="" v:sortKey=""
						v:invis="false" v:ask="false" v:langID="1033" v:cal="0"/>
				<v:cp v:nameU="Owner" v:lbl="Owner" v:prompt="" v:type="0" v:format="" v:sortKey="" v:invis="false" v:ask="false"
						v:langID="1033" v:cal="0"/>
				<v:cp v:nameU="Function" v:lbl="Function" v:prompt="" v:type="0" v:format="" v:sortKey="" v:invis="false"
						v:ask="false" v:langID="1033" v:cal="0" v:val="VT4()"/>
				<v:cp v:nameU="StartDate" v:lbl="Start Date" v:prompt="" v:type="5" v:format="" v:sortKey="" v:invis="false"
						v:ask="false" v:langID="1033" v:cal="0"/>
				<v:cp v:nameU="EndDate" v:lbl="End Date" v:prompt="" v:type="5" v:format="" v:sortKey="" v:invis="false"
						v:ask="false" v:langID="1033" v:cal="0"/>
				<v:cp v:nameU="Status" v:lbl="Status" v:prompt="" v:type="4"
						v:format=";Not Started;In Progress;Completed;Deferred;Waiting on Input" v:sortKey="" v:invis="false"
						v:ask="false" v:langID="1033" v:cal="0" v:val="VT4()"/>
			</v:custProps>
			<v:userDefs>
				<v:ud v:nameU="visVersion" v:prompt="" v:val="VT0(15):26"/>
				<v:ud v:nameU="DefaultWidth" v:prompt="" v:val="VT0(0.98425196850394):24"/>
				<v:ud v:nameU="DefaultHeight" v:prompt="" v:val="VT0(0.59055118110236):24"/>
				<v:ud v:nameU="ResizeTxtHeight" v:prompt="" v:val="VT0(0.59055118110236):24"/>
				<v:ud v:nameU="ResizeTxtHeight" v:prompt="" v:val="VT0(0.74803149606299):24"/>
			</v:userDefs>
			<v:textBlock v:margins="rect(2,2,2,2)" v:tabSpace="42.5197"/>
			<v:textRect cx="113.386" cy="496.558" width="226.78" height="85.0394"/>
			<rect x="0" y="454.038" width="226.772" height="85.0394" rx="5.66929" ry="5.66929" class="st1"/>
			<text x="9.03" y="481.56" class="st4" v:langID="5129"><v:paragraph/><v:tabList/><tspan class="st5">MessageSpec</tspan><tspan
						class="st6">  </tspan><tspan x="2" dy="1.2em" class="st6">  </tspan><tspan class="st6">MessageRefID</tspan><tspan
						class="st6">:<v:tabChar/><v:tabChar/></tspan><tspan dx="4.465em" class="st6">ABCBank</tspan><tspan
						class="st6">_</tspan><tspan class="st6">Msg</tspan><tspan class="st6">02<v:newlineChar/></tspan><tspan
						x="2" dy="1.2em" class="st6">  </tspan><tspan class="st6">MessageTypeIndic</tspan><tspan class="st6">:<v:tabChar/></tspan><tspan
						dx="2.4em" class="st6">CRS</tspan><tspan class="st6">702<v:newlineChar/></tspan><tspan x="2" dy="1.2em"
						class="st6">  </tspan><tspan class="st6">CorrMessageRefID</tspan><tspan class="st6">:     </tspan>     </text>		</g>
		<g id="shape32-216" v:mID="32" v:groupContext="shape" v:layerMember="1" transform="translate(294.213,-467.837)">
			<title>Dynamic connector.46</title>
			<path d="M4.25 539.08 L4.25 592.94 A2.83465 2.83465 -180 0 0 7.09 595.77 L9.92 595.77" class="st3"/>
		</g>
		<g id="shape33-219" v:mID="33" v:groupContext="shape" v:layerMember="0" transform="translate(573.425,-467.837)">
			<title>Process.33</title>
			<desc>CRS_OECD</desc>
			<v:custProps>
				<v:cp v:nameU="Cost" v:lbl="Cost" v:prompt="" v:type="7" v:format="@" v:sortKey="" v:invis="false" v:ask="false"
						v:langID="1033" v:cal="0"/>
				<v:cp v:nameU="ProcessNumber" v:lbl="Process Number" v:prompt="" v:type="2" v:format="" v:sortKey=""
						v:invis="false" v:ask="false" v:langID="1033" v:cal="0"/>
				<v:cp v:nameU="Owner" v:lbl="Owner" v:prompt="" v:type="0" v:format="" v:sortKey="" v:invis="false" v:ask="false"
						v:langID="1033" v:cal="0"/>
				<v:cp v:nameU="Function" v:lbl="Function" v:prompt="" v:type="0" v:format="" v:sortKey="" v:invis="false"
						v:ask="false" v:langID="1033" v:cal="0" v:val="VT4()"/>
				<v:cp v:nameU="StartDate" v:lbl="Start Date" v:prompt="" v:type="5" v:format="" v:sortKey="" v:invis="false"
						v:ask="false" v:langID="1033" v:cal="0"/>
				<v:cp v:nameU="EndDate" v:lbl="End Date" v:prompt="" v:type="5" v:format="" v:sortKey="" v:invis="false"
						v:ask="false" v:langID="1033" v:cal="0"/>
				<v:cp v:nameU="Status" v:lbl="Status" v:prompt="" v:type="4"
						v:format=";Not Started;In Progress;Completed;Deferred;Waiting on Input" v:sortKey="" v:invis="false"
						v:ask="false" v:langID="1033" v:cal="0" v:val="VT4()"/>
			</v:custProps>
			<v:userDefs>
				<v:ud v:nameU="visVersion" v:prompt="" v:val="VT0(15):26"/>
				<v:ud v:nameU="DefaultWidth" v:prompt="" v:val="VT0(0.98425196850394):24"/>
				<v:ud v:nameU="DefaultHeight" v:prompt="" v:val="VT0(0.59055118110236):24"/>
				<v:ud v:nameU="ResizeTxtHeight" v:prompt="" v:val="VT0(0.59055118110236):24"/>
			</v:userDefs>
			<v:textBlock v:margins="rect(2,2,2,2)" v:tabSpace="42.5197"/>
			<v:textRect cx="49.6063" cy="524.904" width="99.22" height="28.3465"/>
			<rect x="0" y="510.731" width="99.2126" height="28.3465" rx="5.66929" ry="5.66929" class="st1"/>
			<text x="21.6" y="527.9" class="st2" v:langID="5129"><v:paragraph v:horizAlign="1"/><v:tabList/>CRS_OECD</text>		</g>
		<g id="shape34-222" v:mID="34" v:groupContext="shape" v:layerMember="0" transform="translate(587.598,-326.104)">
			<title>Process.48</title>
			<desc>CrsBody</desc>
			<v:custProps>
				<v:cp v:nameU="Cost" v:lbl="Cost" v:prompt="" v:type="7" v:format="@" v:sortKey="" v:invis="false" v:ask="false"
						v:langID="1033" v:cal="0"/>
				<v:cp v:nameU="ProcessNumber" v:lbl="Process Number" v:prompt="" v:type="2" v:format="" v:sortKey=""
						v:invis="false" v:ask="false" v:langID="1033" v:cal="0"/>
				<v:cp v:nameU="Owner" v:lbl="Owner" v:prompt="" v:type="0" v:format="" v:sortKey="" v:invis="false" v:ask="false"
						v:langID="1033" v:cal="0"/>
				<v:cp v:nameU="Function" v:lbl="Function" v:prompt="" v:type="0" v:format="" v:sortKey="" v:invis="false"
						v:ask="false" v:langID="1033" v:cal="0" v:val="VT4()"/>
				<v:cp v:nameU="StartDate" v:lbl="Start Date" v:prompt="" v:type="5" v:format="" v:sortKey="" v:invis="false"
						v:ask="false" v:langID="1033" v:cal="0"/>
				<v:cp v:nameU="EndDate" v:lbl="End Date" v:prompt="" v:type="5" v:format="" v:sortKey="" v:invis="false"
						v:ask="false" v:langID="1033" v:cal="0"/>
				<v:cp v:nameU="Status" v:lbl="Status" v:prompt="" v:type="4"
						v:format=";Not Started;In Progress;Completed;Deferred;Waiting on Input" v:sortKey="" v:invis="false"
						v:ask="false" v:langID="1033" v:cal="0" v:val="VT4()"/>
			</v:custProps>
			<v:userDefs>
				<v:ud v:nameU="visVersion" v:prompt="" v:val="VT0(15):26"/>
				<v:ud v:nameU="DefaultWidth" v:prompt="" v:val="VT0(0.98425196850394):24"/>
				<v:ud v:nameU="DefaultHeight" v:prompt="" v:val="VT0(0.59055118110236):24"/>
				<v:ud v:nameU="ResizeTxtHeight" v:prompt="" v:val="VT0(0.59055118110236):24"/>
			</v:userDefs>
			<v:textBlock v:margins="rect(2,2,2,2)" v:tabSpace="42.5197"/>
			<v:textRect cx="49.6063" cy="524.904" width="99.22" height="28.3465"/>
			<rect x="0" y="510.731" width="99.2126" height="28.3465" rx="5.66929" ry="5.66929" class="st1"/>
			<text x="28.84" y="527.9" class="st2" v:langID="5129"><v:paragraph v:horizAlign="1"/><v:tabList/>CrsBody</text>		</g>
		<g id="shape35-225" v:mID="35" v:groupContext="shape" v:layerMember="1" transform="translate(577.677,-467.837)">
			<title>Dynamic connector.49</title>
			<path d="M4.25 539.08 L4.25 663.8 A2.83465 2.83465 -180 0 0 7.09 666.64 L9.92 666.64" class="st3"/>
		</g>
		<g id="shape36-228" v:mID="36" v:groupContext="shape" v:layerMember="0" transform="translate(601.772,-283.585)">
			<title>Process.50</title>
			<desc>ReportingFI</desc>
			<v:custProps>
				<v:cp v:nameU="Cost" v:lbl="Cost" v:prompt="" v:type="7" v:format="@" v:sortKey="" v:invis="false" v:ask="false"
						v:langID="1033" v:cal="0"/>
				<v:cp v:nameU="ProcessNumber" v:lbl="Process Number" v:prompt="" v:type="2" v:format="" v:sortKey=""
						v:invis="false" v:ask="false" v:langID="1033" v:cal="0"/>
				<v:cp v:nameU="Owner" v:lbl="Owner" v:prompt="" v:type="0" v:format="" v:sortKey="" v:invis="false" v:ask="false"
						v:langID="1033" v:cal="0"/>
				<v:cp v:nameU="Function" v:lbl="Function" v:prompt="" v:type="0" v:format="" v:sortKey="" v:invis="false"
						v:ask="false" v:langID="1033" v:cal="0" v:val="VT4()"/>
				<v:cp v:nameU="StartDate" v:lbl="Start Date" v:prompt="" v:type="5" v:format="" v:sortKey="" v:invis="false"
						v:ask="false" v:langID="1033" v:cal="0"/>
				<v:cp v:nameU="EndDate" v:lbl="End Date" v:prompt="" v:type="5" v:format="" v:sortKey="" v:invis="false"
						v:ask="false" v:langID="1033" v:cal="0"/>
				<v:cp v:nameU="Status" v:lbl="Status" v:prompt="" v:type="4"
						v:format=";Not Started;In Progress;Completed;Deferred;Waiting on Input" v:sortKey="" v:invis="false"
						v:ask="false" v:langID="1033" v:cal="0" v:val="VT4()"/>
			</v:custProps>
			<v:userDefs>
				<v:ud v:nameU="visVersion" v:prompt="" v:val="VT0(15):26"/>
				<v:ud v:nameU="DefaultWidth" v:prompt="" v:val="VT0(0.98425196850394):24"/>
				<v:ud v:nameU="DefaultHeight" v:prompt="" v:val="VT0(0.59055118110236):24"/>
				<v:ud v:nameU="ResizeTxtHeight" v:prompt="" v:val="VT0(0.59055118110236):24"/>
			</v:userDefs>
			<v:textBlock v:margins="rect(2,2,2,2)" v:tabSpace="42.5197"/>
			<v:textRect cx="49.6063" cy="524.904" width="99.22" height="28.3465"/>
			<rect x="0" y="510.731" width="99.2126" height="28.3465" rx="5.66929" ry="5.66929" class="st1"/>
			<text x="20.27" y="527.9" class="st2" v:langID="5129"><v:paragraph v:horizAlign="1"/><v:tabList/>ReportingFI</text>		</g>
		<g id="shape37-231" v:mID="37" v:groupContext="shape" v:layerMember="1" transform="translate(590.806,-326.21)">
			<title>Dynamic connector.51</title>
			<path d="M4.25 539.08 L4.25 564.59 A2.83465 2.83465 -180 0 0 7.09 567.42 L9.92 567.42" class="st3"/>
		</g>
		<g id="shape38-234" v:mID="38" v:groupContext="shape" v:layerMember="0" transform="translate(615.945,-184.372)">
			<title>Process.52</title>
			<desc>DocSpec DocTypeIndic: OECD0 DocRefID: ABC0001 CorrDocRefID: C...</desc>
			<v:custProps>
				<v:cp v:nameU="Cost" v:lbl="Cost" v:prompt="" v:type="7" v:format="@" v:sortKey="" v:invis="false" v:ask="false"
						v:langID="1033" v:cal="0"/>
				<v:cp v:nameU="ProcessNumber" v:lbl="Process Number" v:prompt="" v:type="2" v:format="" v:sortKey=""
						v:invis="false" v:ask="false" v:langID="1033" v:cal="0"/>
				<v:cp v:nameU="Owner" v:lbl="Owner" v:prompt="" v:type="0" v:format="" v:sortKey="" v:invis="false" v:ask="false"
						v:langID="1033" v:cal="0"/>
				<v:cp v:nameU="Function" v:lbl="Function" v:prompt="" v:type="0" v:format="" v:sortKey="" v:invis="false"
						v:ask="false" v:langID="1033" v:cal="0" v:val="VT4()"/>
				<v:cp v:nameU="StartDate" v:lbl="Start Date" v:prompt="" v:type="5" v:format="" v:sortKey="" v:invis="false"
						v:ask="false" v:langID="1033" v:cal="0"/>
				<v:cp v:nameU="EndDate" v:lbl="End Date" v:prompt="" v:type="5" v:format="" v:sortKey="" v:invis="false"
						v:ask="false" v:langID="1033" v:cal="0"/>
				<v:cp v:nameU="Status" v:lbl="Status" v:prompt="" v:type="4"
						v:format=";Not Started;In Progress;Completed;Deferred;Waiting on Input" v:sortKey="" v:invis="false"
						v:ask="false" v:langID="1033" v:cal="0" v:val="VT4()"/>
			</v:custProps>
			<v:userDefs>
				<v:ud v:nameU="visVersion" v:prompt="" v:val="VT0(15):26"/>
				<v:ud v:nameU="DefaultWidth" v:prompt="" v:val="VT0(0.98425196850394):24"/>
				<v:ud v:nameU="DefaultHeight" v:prompt="" v:val="VT0(0.59055118110236):24"/>
				<v:ud v:nameU="ResizeTxtHeight" v:prompt="" v:val="VT0(0.59055118110236):24"/>
				<v:ud v:nameU="ResizeTxtHeight" v:prompt="" v:val="VT0(0.90551181102362):24"/>
			</v:userDefs>
			<v:textBlock v:margins="rect(2,2,2,2)" v:tabSpace="42.5197"/>
			<v:textRect cx="92.126" cy="496.558" width="184.26" height="85.0394"/>
			<rect x="0" y="454.038" width="184.252" height="85.0394" rx="5.66929" ry="5.66929" class="st1"/>
			<text x="9.03" y="475.56" class="st4" v:langID="5129"><v:paragraph/><v:tabList/><tspan class="st5">DocSpec</tspan><tspan
						class="st6">  </tspan><tspan x="2" dy="1.2em" class="st6">  </tspan><tspan class="st6">DocTypeIndic</tspan><tspan
						class="st6">:<v:tabChar/></tspan><tspan dx="0.549em" class="st6">         </tspan><tspan class="st6">OECD</tspan><tspan
						class="st6">0<v:newlineChar/></tspan><tspan x="2" dy="1.2em" class="st6">  </tspan><tspan class="st6">DocRefID</tspan><tspan
						class="st6">:<v:tabChar/></tspan><tspan dx="2.614em" class="st6">         </tspan><tspan class="st6">ABC</tspan><tspan
						class="st6">0001<v:newlineChar/></tspan><tspan x="2" dy="1.2em" class="st6">  </tspan><tspan class="st6">CorrDocRefID</tspan><tspan
						class="st6">:<v:space/></tspan><tspan dx="0.456em" class="st6">         </tspan><tspan x="2" dy="1.2em"
						class="st6">  </tspan><tspan class="st6">CorrMessageRefID</tspan><tspan class="st6">:     </tspan>     </text>		</g>
		<g id="shape39-258" v:mID="39" v:groupContext="shape" v:layerMember="1" transform="translate(605.128,-283.05)">
			<title>Dynamic connector.53</title>
			<path d="M3.36 539.08 L3.36 591.51 A3.7298 3.7298 -180 0 0 7.09 595.24 L10.82 595.24" class="st3"/>
		</g>
		<g id="shape40-261" v:mID="40" v:groupContext="shape" v:layerMember="0" transform="translate(601.772,-141.852)">
			<title>Process.54</title>
			<desc>ReportingGroup</desc>
			<v:custProps>
				<v:cp v:nameU="Cost" v:lbl="Cost" v:prompt="" v:type="7" v:format="@" v:sortKey="" v:invis="false" v:ask="false"
						v:langID="1033" v:cal="0"/>
				<v:cp v:nameU="ProcessNumber" v:lbl="Process Number" v:prompt="" v:type="2" v:format="" v:sortKey=""
						v:invis="false" v:ask="false" v:langID="1033" v:cal="0"/>
				<v:cp v:nameU="Owner" v:lbl="Owner" v:prompt="" v:type="0" v:format="" v:sortKey="" v:invis="false" v:ask="false"
						v:langID="1033" v:cal="0"/>
				<v:cp v:nameU="Function" v:lbl="Function" v:prompt="" v:type="0" v:format="" v:sortKey="" v:invis="false"
						v:ask="false" v:langID="1033" v:cal="0" v:val="VT4()"/>
				<v:cp v:nameU="StartDate" v:lbl="Start Date" v:prompt="" v:type="5" v:format="" v:sortKey="" v:invis="false"
						v:ask="false" v:langID="1033" v:cal="0"/>
				<v:cp v:nameU="EndDate" v:lbl="End Date" v:prompt="" v:type="5" v:format="" v:sortKey="" v:invis="false"
						v:ask="false" v:langID="1033" v:cal="0"/>
				<v:cp v:nameU="Status" v:lbl="Status" v:prompt="" v:type="4"
						v:format=";Not Started;In Progress;Completed;Deferred;Waiting on Input" v:sortKey="" v:invis="false"
						v:ask="false" v:langID="1033" v:cal="0" v:val="VT4()"/>
			</v:custProps>
			<v:userDefs>
				<v:ud v:nameU="visVersion" v:prompt="" v:val="VT0(15):26"/>
				<v:ud v:nameU="DefaultWidth" v:prompt="" v:val="VT0(0.98425196850394):24"/>
				<v:ud v:nameU="DefaultHeight" v:prompt="" v:val="VT0(0.59055118110236):24"/>
				<v:ud v:nameU="ResizeTxtHeight" v:prompt="" v:val="VT0(0.59055118110236):24"/>
			</v:userDefs>
			<v:textBlock v:margins="rect(2,2,2,2)" v:tabSpace="42.5197"/>
			<v:textRect cx="49.6063" cy="524.904" width="99.22" height="28.3465"/>
			<rect x="0" y="510.731" width="99.2126" height="28.3465" rx="5.66929" ry="5.66929" class="st1"/>
			<text x="9.92" y="527.9" class="st2" v:langID="5129"><v:paragraph v:horizAlign="1"/><v:tabList/>ReportingGroup</text>		</g>
		<g id="shape41-264" v:mID="41" v:groupContext="shape" v:layerMember="1" transform="translate(591.328,-326.21)">
			<title>Dynamic connector.55</title>
			<path d="M3.73 539.08 L3.73 705.91 A3.35682 3.35682 -180 0 0 7.09 709.26 L10.44 709.26" class="st3"/>
		</g>
		<g id="shape42-267" v:mID="42" v:groupContext="shape" v:layerMember="0" transform="translate(615.945,-99.3326)">
			<title>Process.56</title>
			<desc>AccountReport</desc>
			<v:custProps>
				<v:cp v:nameU="Cost" v:lbl="Cost" v:prompt="" v:type="7" v:format="@" v:sortKey="" v:invis="false" v:ask="false"
						v:langID="1033" v:cal="0"/>
				<v:cp v:nameU="ProcessNumber" v:lbl="Process Number" v:prompt="" v:type="2" v:format="" v:sortKey=""
						v:invis="false" v:ask="false" v:langID="1033" v:cal="0"/>
				<v:cp v:nameU="Owner" v:lbl="Owner" v:prompt="" v:type="0" v:format="" v:sortKey="" v:invis="false" v:ask="false"
						v:langID="1033" v:cal="0"/>
				<v:cp v:nameU="Function" v:lbl="Function" v:prompt="" v:type="0" v:format="" v:sortKey="" v:invis="false"
						v:ask="false" v:langID="1033" v:cal="0" v:val="VT4()"/>
				<v:cp v:nameU="StartDate" v:lbl="Start Date" v:prompt="" v:type="5" v:format="" v:sortKey="" v:invis="false"
						v:ask="false" v:langID="1033" v:cal="0"/>
				<v:cp v:nameU="EndDate" v:lbl="End Date" v:prompt="" v:type="5" v:format="" v:sortKey="" v:invis="false"
						v:ask="false" v:langID="1033" v:cal="0"/>
				<v:cp v:nameU="Status" v:lbl="Status" v:prompt="" v:type="4"
						v:format=";Not Started;In Progress;Completed;Deferred;Waiting on Input" v:sortKey="" v:invis="false"
						v:ask="false" v:langID="1033" v:cal="0" v:val="VT4()"/>
			</v:custProps>
			<v:userDefs>
				<v:ud v:nameU="visVersion" v:prompt="" v:val="VT0(15):26"/>
				<v:ud v:nameU="DefaultWidth" v:prompt="" v:val="VT0(0.98425196850394):24"/>
				<v:ud v:nameU="DefaultHeight" v:prompt="" v:val="VT0(0.59055118110236):24"/>
				<v:ud v:nameU="ResizeTxtHeight" v:prompt="" v:val="VT0(0.59055118110236):24"/>
			</v:userDefs>
			<v:textBlock v:margins="rect(2,2,2,2)" v:tabSpace="42.5197"/>
			<v:textRect cx="49.6063" cy="524.904" width="99.22" height="28.3465"/>
			<rect x="0" y="510.731" width="99.2126" height="28.3465" rx="5.66929" ry="5.66929" class="st1"/>
			<text x="12.94" y="527.9" class="st2" v:langID="5129"><v:paragraph v:horizAlign="1"/><v:tabList/>AccountReport</text>		</g>
		<g id="shape43-270" v:mID="43" v:groupContext="shape" v:layerMember="1" transform="translate(606.024,-141.852)">
			<title>Dynamic connector.57</title>
			<path d="M4.25 539.08 L4.25 564.59 A2.83465 2.83465 -180 0 0 7.09 567.42 L9.92 567.42" class="st3"/>
		</g>
		<g id="shape44-273" v:mID="44" v:groupContext="shape" v:layerMember="0" transform="translate(630.118,-0.12)">
			<title>Process.58</title>
			<desc>DocSpec DocTypeIndic: OECD2 DocRefID: GHI0004 CorrDocRefID: D...</desc>
			<v:custProps>
				<v:cp v:nameU="Cost" v:lbl="Cost" v:prompt="" v:type="7" v:format="@" v:sortKey="" v:invis="false" v:ask="false"
						v:langID="1033" v:cal="0"/>
				<v:cp v:nameU="ProcessNumber" v:lbl="Process Number" v:prompt="" v:type="2" v:format="" v:sortKey=""
						v:invis="false" v:ask="false" v:langID="1033" v:cal="0"/>
				<v:cp v:nameU="Owner" v:lbl="Owner" v:prompt="" v:type="0" v:format="" v:sortKey="" v:invis="false" v:ask="false"
						v:langID="1033" v:cal="0"/>
				<v:cp v:nameU="Function" v:lbl="Function" v:prompt="" v:type="0" v:format="" v:sortKey="" v:invis="false"
						v:ask="false" v:langID="1033" v:cal="0" v:val="VT4()"/>
				<v:cp v:nameU="StartDate" v:lbl="Start Date" v:prompt="" v:type="5" v:format="" v:sortKey="" v:invis="false"
						v:ask="false" v:langID="1033" v:cal="0"/>
				<v:cp v:nameU="EndDate" v:lbl="End Date" v:prompt="" v:type="5" v:format="" v:sortKey="" v:invis="false"
						v:ask="false" v:langID="1033" v:cal="0"/>
				<v:cp v:nameU="Status" v:lbl="Status" v:prompt="" v:type="4"
						v:format=";Not Started;In Progress;Completed;Deferred;Waiting on Input" v:sortKey="" v:invis="false"
						v:ask="false" v:langID="1033" v:cal="0" v:val="VT4()"/>
			</v:custProps>
			<v:userDefs>
				<v:ud v:nameU="visVersion" v:prompt="" v:val="VT0(15):26"/>
				<v:ud v:nameU="DefaultWidth" v:prompt="" v:val="VT0(0.98425196850394):24"/>
				<v:ud v:nameU="DefaultHeight" v:prompt="" v:val="VT0(0.59055118110236):24"/>
				<v:ud v:nameU="ResizeTxtHeight" v:prompt="" v:val="VT0(0.59055118110236):24"/>
				<v:ud v:nameU="ResizeTxtHeight" v:prompt="" v:val="VT0(0.90551181102362):24"/>
			</v:userDefs>
			<v:textBlock v:margins="rect(2,2,2,2)" v:tabSpace="42.5197"/>
			<v:textRect cx="92.126" cy="496.558" width="184.26" height="85.0394"/>
			<rect x="0" y="454.038" width="184.252" height="85.0394" rx="5.66929" ry="5.66929" class="st1"/>
			<text x="9.03" y="475.56" class="st4" v:langID="5129"><v:paragraph/><v:tabList/><tspan class="st5">DocSpec</tspan><tspan
						class="st6">  </tspan><tspan x="2" dy="1.2em" class="st6">  </tspan><tspan class="st6">DocTypeIndic</tspan><tspan
						class="st6">:<v:tabChar/></tspan><tspan dx="0.549em" class="st6">         </tspan><tspan class="st6">OECD</tspan><tspan
						class="st6">2<v:newlineChar/></tspan><tspan x="2" dy="1.2em" class="st6">  </tspan><tspan class="st6">DocRefID</tspan><tspan
						class="st6">:<v:tabChar/></tspan><tspan dx="2.614em" class="st6">         </tspan><tspan class="st6">GHI</tspan><tspan
						class="st6">0004<v:newlineChar/></tspan><tspan x="2" dy="1.2em" class="st6">  </tspan><tspan class="st6">CorrDocRefID</tspan><tspan
						class="st6">:<v:tabChar/></tspan><tspan dx="0.456em" class="st6">         </tspan><tspan class="st6">DEF</tspan><tspan
						class="st6">0003<v:newlineChar/></tspan><tspan x="2" dy="1.2em" class="st6">  </tspan><tspan class="st6">CorrMessageRefID</tspan><tspan
						class="st6">:     </tspan>     </text>		</g>
		<g id="shape45-299" v:mID="45" v:groupContext="shape" v:layerMember="1" transform="translate(619.302,-99.3326)">
			<title>Dynamic connector.59</title>
			<path d="M3.36 539.08 L3.36 584.42 A3.7298 3.7298 -180 0 0 7.09 588.15 L10.82 588.15" class="st3"/>
		</g>
		<g id="shape46-302" v:mID="46" v:groupContext="shape" transform="translate(573.425,-510.356)">
			<title>Sheet.46</title>
			<desc>2ND CORRECTION</desc>
			<v:textBlock v:margins="rect(4,4,4,4)" v:tabSpace="42.5197"/>
			<v:textRect cx="77.9528" cy="524.904" width="155.91" height="28.3465"/>
			<rect x="0" y="510.731" width="155.906" height="28.3465" class="st7"/>
			<text x="4" y="528.5" class="st8" v:langID="5129"><v:paragraph/><v:tabList/>2<tspan dy="-0.198em" class="st9"
						v:baseFontSize="12">ND</tspan><tspan dy="0.129em" class="st10"> </tspan>CORRECTION</text>		</g>
		<g id="shape47-307" v:mID="47" v:groupContext="shape" v:layerMember="0" transform="translate(587.598,-368.624)">
			<title>Process.61</title>
			<desc>MessageSpec MessageRefID: ABCBank_Msg03 MessageTypeIndic: CRS...</desc>
			<v:custProps>
				<v:cp v:nameU="Cost" v:lbl="Cost" v:prompt="" v:type="7" v:format="@" v:sortKey="" v:invis="false" v:ask="false"
						v:langID="1033" v:cal="0"/>
				<v:cp v:nameU="ProcessNumber" v:lbl="Process Number" v:prompt="" v:type="2" v:format="" v:sortKey=""
						v:invis="false" v:ask="false" v:langID="1033" v:cal="0"/>
				<v:cp v:nameU="Owner" v:lbl="Owner" v:prompt="" v:type="0" v:format="" v:sortKey="" v:invis="false" v:ask="false"
						v:langID="1033" v:cal="0"/>
				<v:cp v:nameU="Function" v:lbl="Function" v:prompt="" v:type="0" v:format="" v:sortKey="" v:invis="false"
						v:ask="false" v:langID="1033" v:cal="0" v:val="VT4()"/>
				<v:cp v:nameU="StartDate" v:lbl="Start Date" v:prompt="" v:type="5" v:format="" v:sortKey="" v:invis="false"
						v:ask="false" v:langID="1033" v:cal="0"/>
				<v:cp v:nameU="EndDate" v:lbl="End Date" v:prompt="" v:type="5" v:format="" v:sortKey="" v:invis="false"
						v:ask="false" v:langID="1033" v:cal="0"/>
				<v:cp v:nameU="Status" v:lbl="Status" v:prompt="" v:type="4"
						v:format=";Not Started;In Progress;Completed;Deferred;Waiting on Input" v:sortKey="" v:invis="false"
						v:ask="false" v:langID="1033" v:cal="0" v:val="VT4()"/>
			</v:custProps>
			<v:userDefs>
				<v:ud v:nameU="visVersion" v:prompt="" v:val="VT0(15):26"/>
				<v:ud v:nameU="DefaultWidth" v:prompt="" v:val="VT0(0.98425196850394):24"/>
				<v:ud v:nameU="DefaultHeight" v:prompt="" v:val="VT0(0.59055118110236):24"/>
				<v:ud v:nameU="ResizeTxtHeight" v:prompt="" v:val="VT0(0.59055118110236):24"/>
				<v:ud v:nameU="ResizeTxtHeight" v:prompt="" v:val="VT0(0.74803149606299):24"/>
			</v:userDefs>
			<v:textBlock v:margins="rect(2,2,2,2)" v:tabSpace="42.5197"/>
			<v:textRect cx="113.386" cy="496.558" width="226.78" height="85.0394"/>
			<rect x="0" y="454.038" width="226.772" height="85.0394" rx="5.66929" ry="5.66929" class="st1"/>
			<text x="9.03" y="481.56" class="st4" v:langID="5129"><v:paragraph/><v:tabList/><tspan class="st5">MessageSpec</tspan><tspan
						class="st6">  </tspan><tspan x="2" dy="1.2em" class="st6">  </tspan><tspan class="st6">MessageRefID</tspan><tspan
						class="st6">:<v:tabChar/><v:tabChar/></tspan><tspan dx="4.465em" class="st6">ABCBank</tspan><tspan
						class="st6">_</tspan><tspan class="st6">Msg</tspan><tspan class="st6">03<v:newlineChar/></tspan><tspan
						x="2" dy="1.2em" class="st6">  </tspan><tspan class="st6">MessageTypeIndic</tspan><tspan class="st6">:<v:tabChar/></tspan><tspan
						dx="2.4em" class="st6">CRS</tspan><tspan class="st6">702<v:newlineChar/></tspan><tspan x="2" dy="1.2em"
						class="st6">  </tspan><tspan class="st6">CorrMessageRefID</tspan><tspan class="st6">:     </tspan>     </text>		</g>
		<g id="shape48-327" v:mID="48" v:groupContext="shape" v:layerMember="1" transform="translate(577.677,-467.837)">
			<title>Dynamic connector.62</title>
			<path d="M4.25 539.08 L4.25 592.94 A2.83465 2.83465 -180 0 0 7.09 595.77 L9.92 595.77" class="st3"/>
		</g>
	</g>
</svg>
