<?xml version="1.0" encoding="UTF-8" standalone="no"?>
<!DOCTYPE svg PUBLIC "-//W3C//DTD SVG 1.1//EN" "http://www.w3.org/Graphics/SVG/1.1/DTD/svg11.dtd">
<!-- Generated by Microsoft Visio, SVG Export annex-.svg Page-1 -->
<svg xmlns="http://www.w3.org/2000/svg" xmlns:xlink="http://www.w3.org/1999/xlink" xmlns:ev="http://www.w3.org/2001/xml-events"
		xmlns:v="http://schemas.microsoft.com/visio/2003/SVGExtensions/" width="0.761944in" height="3.32098in"
		viewBox="0 0 54.86 239.11" xml:space="preserve" color-interpolation-filters="sRGB" class="st7">
	<title>Graphics for International tax - A discussion document (1995)</title>
	<v:documentProperties v:langID="5129" v:metric="true" v:viewMarkup="false">
		<v:userDefs>
			<v:ud v:nameU="msvConvertTheme"/>
		</v:userDefs>
	</v:documentProperties>

	<style type="text/css">
	<![CDATA[
		.st1 {fill:#ffffff;stroke:#000000;stroke-linecap:round;stroke-linejoin:round;stroke-width:1}
		.st2 {fill:#000000;font-family:Verdana;font-size:0.666664em;font-weight:bold}
		.st3 {marker-end:url(#mrkr13-19);stroke:#000000;stroke-linecap:round;stroke-linejoin:round;stroke-width:1}
		.st4 {fill:#000000;fill-opacity:1;stroke:#000000;stroke-opacity:1;stroke-width:0.28409090909091}
		.st5 {fill:none;stroke:none;stroke-linecap:round;stroke-linejoin:round;stroke-width:0.72}
		.st6 {fill:#000000;font-family:Verdana;font-size:0.666664em}
		.st7 {fill:none;fill-rule:evenodd;font-size:12px;overflow:visible;stroke-linecap:square;stroke-miterlimit:3}
	]]>
	</style>

	<defs id="Markers">
		<g id="lend13">
			<path d="M 3 1 L 0 0 L 3 -1 L 3 1 " style="stroke:none"/>
		</g>
		<marker id="mrkr13-19" class="st4" v:arrowType="13" v:arrowSize="2" v:setback="10.56" refX="-10.56" orient="auto"
				markerUnits="strokeWidth" overflow="visible">
			<use xlink:href="#lend13" transform="scale(-3.52,-3.52) "/>
		</marker>
	</defs>
	<g v:mID="0" v:index="1" v:groupContext="foregroundPage">
		<title>Page-1</title>
		<v:pageProperties v:drawingScale="0.0393701" v:pageScale="0.0393701" v:drawingUnits="24" v:shadowOffsetX="8.50394"
				v:shadowOffsetY="-8.50394"/>
		<v:layer v:name="Connector" v:index="0"/>
		<g id="group122-1" transform="translate(0.5,-0.5)" v:mID="122" v:groupContext="group">
			<title>Sheet.122</title>
			<g id="shape107-2" v:mID="107" v:groupContext="shape" transform="translate(-7.99361E-015,-212.598)">
				<title>Sheet.107</title>
				<desc>NRCO</desc>
				<v:textBlock v:margins="rect(2,2,2,2)" v:tabSpace="42.5197"/>
				<v:textRect cx="22.3228" cy="226.354" width="44.65" height="25.5118"/>
				<rect x="0" y="213.598" width="44.6457" height="25.5118" class="st1"/>
				<text x="9.51" y="228.75" class="st2" v:langID="5129"><v:paragraph v:horizAlign="1"/><v:tabList/>NRCO</text>			</g>
			<g id="shape108-5" v:mID="108" v:groupContext="shape" transform="translate(1.59872E-014,-141.732)">
				<title>Sheet.108</title>
				<desc>NZCO</desc>
				<v:textBlock v:margins="rect(2,2,2,2)" v:tabSpace="42.5197"/>
				<v:textRect cx="22.3228" cy="226.354" width="44.65" height="25.5118"/>
				<rect x="0" y="213.598" width="44.6457" height="25.5118" class="st1"/>
				<text x="9.87" y="228.75" class="st2" v:langID="5129"><v:paragraph v:horizAlign="1"/><v:tabList/>NZCO</text>			</g>
			<g id="shape109-8" v:mID="109" v:groupContext="shape" transform="translate(0,-70.8661)">
				<title>Sheet.109</title>
				<desc>NZCO1</desc>
				<v:textBlock v:margins="rect(2,2,2,2)" v:tabSpace="42.5197"/>
				<v:textRect cx="22.3228" cy="226.354" width="44.65" height="25.5118"/>
				<rect x="0" y="213.598" width="44.6457" height="25.5118" class="st1"/>
				<text x="7.03" y="228.75" class="st2" v:langID="5129"><v:paragraph v:horizAlign="1"/><v:tabList/>NZCO1</text>			</g>
			<g id="shape110-11" v:mID="110" v:groupContext="shape">
				<title>Sheet.110</title>
				<desc>NZCO2</desc>
				<v:textBlock v:margins="rect(2,2,2,2)" v:tabSpace="42.5197"/>
				<v:textRect cx="22.3228" cy="226.354" width="44.65" height="25.5118"/>
				<rect x="0" y="213.598" width="44.6457" height="25.5118" class="st1"/>
				<text x="7.03" y="228.75" class="st2" v:langID="5129"><v:paragraph v:horizAlign="1"/><v:tabList/>NZCO2</text>			</g>
			<g id="shape111-14" v:mID="111" v:groupContext="shape" v:layerMember="0" transform="translate(15.2362,-212.598)">
				<title>Dynamic connector.111</title>
				<v:userDefs>
					<v:ud v:nameU="visVersion" v:val="VT0(12):26"/>
				</v:userDefs>
				<path d="M7.09 239.11 L7.09 273.9" class="st3"/>
			</g>
			<g id="shape112-20" v:mID="112" v:groupContext="shape" v:layerMember="0" transform="translate(15.2362,-141.732)">
				<title>Dynamic connector.112</title>
				<v:userDefs>
					<v:ud v:nameU="visVersion" v:val="VT0(12):26"/>
				</v:userDefs>
				<path d="M7.09 239.11 L7.09 273.9" class="st3"/>
			</g>
			<g id="shape113-25" v:mID="113" v:groupContext="shape" v:layerMember="0" transform="translate(15.2362,-70.8661)">
				<title>Dynamic connector.113</title>
				<v:userDefs>
					<v:ud v:nameU="visVersion" v:val="VT0(12):26"/>
				</v:userDefs>
				<path d="M7.09 239.11 L7.09 273.9" class="st3"/>
			</g>
			<g id="shape114-30" v:mID="114" v:groupContext="shape" transform="translate(25.5118,-184.252)">
				<title>Sheet.114</title>
				<desc>100%</desc>
				<v:textBlock v:margins="rect(2,2,2,2)" v:tabSpace="42.5197"/>
				<v:textRect cx="14.2441" cy="232.024" width="28.49" height="14.1732"/>
				<rect x="0" y="224.937" width="28.4882" height="14.1732" class="st5"/>
				<text x="2" y="234.42" class="st6" v:langID="5129"><v:paragraph/><v:tabList/>100%</text>			</g>
			<g id="shape118-33" v:mID="118" v:groupContext="shape" transform="translate(25.5118,-113.386)">
				<title>Sheet.118</title>
				<desc>100%</desc>
				<v:textBlock v:margins="rect(2,2,2,2)" v:tabSpace="42.5197"/>
				<v:textRect cx="14.2441" cy="232.024" width="28.49" height="14.1732"/>
				<rect x="0" y="224.937" width="28.4882" height="14.1732" class="st5"/>
				<text x="2" y="234.42" class="st6" v:langID="5129"><v:paragraph/><v:tabList/>100%</text>			</g>
			<g id="shape119-36" v:mID="119" v:groupContext="shape" transform="translate(25.5118,-42.5197)">
				<title>Sheet.119</title>
				<desc>100%</desc>
				<v:textBlock v:margins="rect(2,2,2,2)" v:tabSpace="42.5197"/>
				<v:textRect cx="14.2441" cy="232.024" width="28.49" height="14.1732"/>
				<rect x="0" y="224.937" width="28.4882" height="14.1732" class="st5"/>
				<text x="2" y="234.42" class="st6" v:langID="5129"><v:paragraph/><v:tabList/>100%</text>			</g>
		</g>
	</g>
</svg>
