<?xml version="1.0" encoding="UTF-8" standalone="no"?>
<!DOCTYPE svg PUBLIC "-//W3C//DTD SVG 1.1//EN" "http://www.w3.org/Graphics/SVG/1.1/DTD/svg11.dtd">
<!-- Generated by Microsoft Visio, SVG Export 01-figure-1.svg Page-1 -->
<svg xmlns="http://www.w3.org/2000/svg" xmlns:xlink="http://www.w3.org/1999/xlink" xmlns:ev="http://www.w3.org/2001/xml-events"
		width="5.31843in" height="3.94216in" viewBox="0 0 382.927 283.836" xml:space="preserve" color-interpolation-filters="sRGB"
		class="st11">
	<style type="text/css">
	<![CDATA[
		.st1 {fill:none;stroke:none;stroke-linecap:round;stroke-linejoin:round;stroke-width:0.75}
		.st2 {fill:#000000;font-family:Verdana;font-size:0.833336em}
		.st3 {fill:#9dbb61;stroke:#000000;stroke-linecap:round;stroke-linejoin:round;stroke-width:0.25}
		.st4 {font-size:1em}
		.st5 {marker-end:url(#mrkr7-17);stroke:#31859b;stroke-linecap:round;stroke-linejoin:round;stroke-width:1}
		.st6 {fill:#31859b;fill-opacity:1;stroke:#31859b;stroke-opacity:1;stroke-width:0.28409090909091}
		.st7 {fill:#ffffff;stroke:none;stroke-linecap:butt;stroke-width:7.2}
		.st8 {fill:#ffffff;stroke:#000000;stroke-linecap:round;stroke-linejoin:round;stroke-width:0.25}
		.st9 {fill:#e5b9b5;stroke:#000000;stroke-linecap:round;stroke-linejoin:round;stroke-width:0.25}
		.st10 {fill:#ffffff;stroke:#205867;stroke-linecap:round;stroke-linejoin:round;stroke-width:2.25}
		.st11 {fill:none;fill-rule:evenodd;font-size:12px;overflow:visible;stroke-linecap:square;stroke-miterlimit:3}
	]]>
	</style>

	<defs id="Markers">
		<g id="lend7">
			<path
					d="M 1.84309 -0.959455 C 1.43792 -0.3808 0.784502 -0.0260248 0.0785258 -0.00137083 L 0.0785228 0.00137063 C 0.784499 0.0260235 1.43791 0.380798 1.84309 0.959452 "
					style="stroke-linecap:round;stroke-linejoin:round;fill:none"/>
		</g>
		<marker id="mrkr7-17" class="st6" orient="auto" markerUnits="strokeWidth" overflow="visible">
			<use xlink:href="#lend7" transform="scale(-3.52,-3.52) "/>
		</marker>
	</defs>
	<g>
		<title>Page-1</title>
		<g id="group102-1" transform="translate(0.125,-1.125)">
			<title>Sheet.102</title>
			<g id="shape103-2" transform="translate(21.2598,-268.162)">
				<title>Sheet.103</title>
				<desc>GST payable</desc>
				<rect x="0" y="269.662" width="85.0394" height="14.1732" class="st1"/>
				<text x="10.84" y="279.75" class="st2">GST payable</text>			</g>
			<g id="shape104-5" transform="translate(269.291,-268.162)">
				<title>Sheet.104</title>
				<desc>GST claimed back</desc>
				<rect x="0" y="269.662" width="99.2126" height="14.1732" class="st1"/>
				<text x="4.72" y="279.75" class="st2">GST claimed back</text>			</g>
			<g id="shape105-8" transform="translate(7.99361E-015,-183.123)">
				<title>Rectangle.9</title>
				<desc>“Taxable activity” supplies</desc>
				<rect x="0" y="227.143" width="127.559" height="56.6929" class="st3"/>
				<text x="19.71" y="252.49" class="st2">“Taxable activity” <tspan x="43.45" dy="1.2em" class="st4">supplies</tspan></text>			</g>
			<g id="shape106-12" transform="translate(399.193,-9.95904) rotate(73.1393)">
				<title>Sheet.106</title>
				<desc>$</desc>
				<path d="M0 283.84 L192.52 283.84" class="st5"/>
				<rect x="-246.893" y="168.447" width="6.35751" height="12.0001" transform="rotate(-73.1393)" class="st7"/>
				<text x="-246.89" y="177.45" transform="rotate(-73.1393)" class="st2">$</text>			</g>
			<g id="shape107-20" transform="translate(0,-98.0835)">
				<title>Rectangle.85</title>
				<desc>Receiving donations</desc>
				<rect x="0" y="227.143" width="127.559" height="56.6929" class="st8"/>
				<text x="13.54" y="258.49" class="st2">Receiving donations</text>			</g>
			<g id="shape108-23" transform="translate(7.99361E-015,-13.0442)">
				<title>Rectangle.86</title>
				<desc>Exempt activities, for example: supplying donated goods and s...</desc>
				<rect x="0" y="227.143" width="127.559" height="56.6929" class="st8"/>
				<text x="18.95" y="240.49" class="st2">Exempt activities,  <tspan x="31.56" dy="1.2em" class="st4">for example</tspan>: <tspan
							x="17.66" dy="1.2em" class="st4">supplying donated </tspan><tspan x="15.84" dy="1.2em" class="st4">goods and services</tspan></text>			</g>
			<g id="shape109-29" transform="translate(255.118,-183.123)">
				<title>Rectangle.87</title>
				<desc>All “taxable activity” – related expenses</desc>
				<rect x="0" y="227.143" width="127.559" height="56.6929" class="st9"/>
				<text x="12.9" y="252.49" class="st2">All “taxable activity” <tspan x="16.15" dy="1.2em" class="st4">–</tspan> related expenses</text>			</g>
			<g id="shape110-33" transform="translate(255.118,-98.0835)">
				<title>Rectangle.88</title>
				<desc>All expenses for receiving donations</desc>
				<rect x="0" y="227.143" width="127.559" height="56.6929" class="st9"/>
				<text x="23.79" y="252.49" class="st2">All expenses for <tspan x="14.88" dy="1.2em" class="st4">receiving donations</tspan></text>			</g>
			<g id="shape111-37" transform="translate(255.118,-13.0442)">
				<title>Rectangle.89</title>
				<desc>All expenses for exempt activities</desc>
				<rect x="0" y="227.143" width="127.559" height="56.6929" class="st8"/>
				<text x="23.79" y="252.49" class="st2">All expenses for <tspan x="20.95" dy="1.2em" class="st4">exempt activities</tspan></text>			</g>
			<g id="shape112-41" transform="translate(162.992,5.68434E-014)">
				<title>Ellipse</title>
				<desc>IRD</desc>
				<path d="M0 269.66 A28.3465 14.1732 0 1 1 56.69 269.66 A28.3465 14.1732 0 1 1 0 269.66 Z" class="st10"/>
				<text x="18.91" y="272.66" class="st2">IRD</text>			</g>
			<g id="shape113-44" transform="translate(-72.5612,173.327) rotate(-72.9977)">
				<title>Sheet.113</title>
				<desc>$</desc>
				<path d="M0 283.84 L192.36 283.84" class="st5"/>
				<rect x="310.327" y="-64.441" width="6.35751" height="12.0001" transform="rotate(72.9977)" class="st7"/>
				<text x="310.33" y="-55.44" transform="rotate(72.9977)" class="st2">$</text>			</g>
			<g id="shape114-51" transform="translate(-14.6819,43.4817) rotate(-52.8424)">
				<title>Sheet.114</title>
				<desc>$</desc>
				<path d="M0 283.84 L72.17 283.84" class="st5"/>
				<rect x="244.827" y="136.682" width="6.35751" height="12.0001" transform="rotate(52.8424)" class="st7"/>
				<text x="244.83" y="145.68" transform="rotate(52.8424)" class="st2">$</text>			</g>
		</g>
	</g>
</svg>
